(kicad_sch (version 20211123) (generator eeschema)

  (uuid 9538e4ed-27e6-4c37-b989-9859dc0d49e8)

  (paper "A4")

  (title_block
    (title "Sensor Subsystem Schematic")
    (company "Version 2.0")
    (comment 1 "Date: 11/03/2022")
    (comment 2 "Author: Jonathan Apps")
  )

  (lib_symbols
    (symbol "Device:C" (pin_numbers hide) (pin_names (offset 0.254)) (in_bom yes) (on_board yes)
      (property "Reference" "C" (id 0) (at 0.635 2.54 0)
        (effects (font (size 1.27 1.27)) (justify left))
      )
      (property "Value" "C" (id 1) (at 0.635 -2.54 0)
        (effects (font (size 1.27 1.27)) (justify left))
      )
      (property "Footprint" "" (id 2) (at 0.9652 -3.81 0)
        (effects (font (size 1.27 1.27)) hide)
      )
      (property "Datasheet" "~" (id 3) (at 0 0 0)
        (effects (font (size 1.27 1.27)) hide)
      )
      (property "ki_keywords" "cap capacitor" (id 4) (at 0 0 0)
        (effects (font (size 1.27 1.27)) hide)
      )
      (property "ki_description" "Unpolarized capacitor" (id 5) (at 0 0 0)
        (effects (font (size 1.27 1.27)) hide)
      )
      (property "ki_fp_filters" "C_*" (id 6) (at 0 0 0)
        (effects (font (size 1.27 1.27)) hide)
      )
      (symbol "C_0_1"
        (polyline
          (pts
            (xy -2.032 -0.762)
            (xy 2.032 -0.762)
          )
          (stroke (width 0.508) (type default) (color 0 0 0 0))
          (fill (type none))
        )
        (polyline
          (pts
            (xy -2.032 0.762)
            (xy 2.032 0.762)
          )
          (stroke (width 0.508) (type default) (color 0 0 0 0))
          (fill (type none))
        )
      )
      (symbol "C_1_1"
        (pin passive line (at 0 3.81 270) (length 2.794)
          (name "~" (effects (font (size 1.27 1.27))))
          (number "1" (effects (font (size 1.27 1.27))))
        )
        (pin passive line (at 0 -3.81 90) (length 2.794)
          (name "~" (effects (font (size 1.27 1.27))))
          (number "2" (effects (font (size 1.27 1.27))))
        )
      )
    )
    (symbol "Device:LED" (pin_numbers hide) (pin_names (offset 1.016) hide) (in_bom yes) (on_board yes)
      (property "Reference" "D" (id 0) (at 0 2.54 0)
        (effects (font (size 1.27 1.27)))
      )
      (property "Value" "LED" (id 1) (at 0 -2.54 0)
        (effects (font (size 1.27 1.27)))
      )
      (property "Footprint" "" (id 2) (at 0 0 0)
        (effects (font (size 1.27 1.27)) hide)
      )
      (property "Datasheet" "~" (id 3) (at 0 0 0)
        (effects (font (size 1.27 1.27)) hide)
      )
      (property "ki_keywords" "LED diode" (id 4) (at 0 0 0)
        (effects (font (size 1.27 1.27)) hide)
      )
      (property "ki_description" "Light emitting diode" (id 5) (at 0 0 0)
        (effects (font (size 1.27 1.27)) hide)
      )
      (property "ki_fp_filters" "LED* LED_SMD:* LED_THT:*" (id 6) (at 0 0 0)
        (effects (font (size 1.27 1.27)) hide)
      )
      (symbol "LED_0_1"
        (polyline
          (pts
            (xy -1.27 -1.27)
            (xy -1.27 1.27)
          )
          (stroke (width 0.254) (type default) (color 0 0 0 0))
          (fill (type none))
        )
        (polyline
          (pts
            (xy -1.27 0)
            (xy 1.27 0)
          )
          (stroke (width 0) (type default) (color 0 0 0 0))
          (fill (type none))
        )
        (polyline
          (pts
            (xy 1.27 -1.27)
            (xy 1.27 1.27)
            (xy -1.27 0)
            (xy 1.27 -1.27)
          )
          (stroke (width 0.254) (type default) (color 0 0 0 0))
          (fill (type none))
        )
        (polyline
          (pts
            (xy -3.048 -0.762)
            (xy -4.572 -2.286)
            (xy -3.81 -2.286)
            (xy -4.572 -2.286)
            (xy -4.572 -1.524)
          )
          (stroke (width 0) (type default) (color 0 0 0 0))
          (fill (type none))
        )
        (polyline
          (pts
            (xy -1.778 -0.762)
            (xy -3.302 -2.286)
            (xy -2.54 -2.286)
            (xy -3.302 -2.286)
            (xy -3.302 -1.524)
          )
          (stroke (width 0) (type default) (color 0 0 0 0))
          (fill (type none))
        )
      )
      (symbol "LED_1_1"
        (pin passive line (at -3.81 0 0) (length 2.54)
          (name "K" (effects (font (size 1.27 1.27))))
          (number "1" (effects (font (size 1.27 1.27))))
        )
        (pin passive line (at 3.81 0 180) (length 2.54)
          (name "A" (effects (font (size 1.27 1.27))))
          (number "2" (effects (font (size 1.27 1.27))))
        )
      )
    )
    (symbol "Device:R" (pin_numbers hide) (pin_names (offset 0)) (in_bom yes) (on_board yes)
      (property "Reference" "R" (id 0) (at 2.032 0 90)
        (effects (font (size 1.27 1.27)))
      )
      (property "Value" "R" (id 1) (at 0 0 90)
        (effects (font (size 1.27 1.27)))
      )
      (property "Footprint" "" (id 2) (at -1.778 0 90)
        (effects (font (size 1.27 1.27)) hide)
      )
      (property "Datasheet" "~" (id 3) (at 0 0 0)
        (effects (font (size 1.27 1.27)) hide)
      )
      (property "ki_keywords" "R res resistor" (id 4) (at 0 0 0)
        (effects (font (size 1.27 1.27)) hide)
      )
      (property "ki_description" "Resistor" (id 5) (at 0 0 0)
        (effects (font (size 1.27 1.27)) hide)
      )
      (property "ki_fp_filters" "R_*" (id 6) (at 0 0 0)
        (effects (font (size 1.27 1.27)) hide)
      )
      (symbol "R_0_1"
        (rectangle (start -1.016 -2.54) (end 1.016 2.54)
          (stroke (width 0.254) (type default) (color 0 0 0 0))
          (fill (type none))
        )
      )
      (symbol "R_1_1"
        (pin passive line (at 0 3.81 270) (length 1.27)
          (name "~" (effects (font (size 1.27 1.27))))
          (number "1" (effects (font (size 1.27 1.27))))
        )
        (pin passive line (at 0 -3.81 90) (length 1.27)
          (name "~" (effects (font (size 1.27 1.27))))
          (number "2" (effects (font (size 1.27 1.27))))
        )
      )
    )
    (symbol "Device:R_Photo" (pin_numbers hide) (pin_names (offset 0)) (in_bom yes) (on_board yes)
      (property "Reference" "R" (id 0) (at 1.27 1.27 0)
        (effects (font (size 1.27 1.27)) (justify left))
      )
      (property "Value" "R_Photo" (id 1) (at 1.27 0 0)
        (effects (font (size 1.27 1.27)) (justify left top))
      )
      (property "Footprint" "" (id 2) (at 1.27 -6.35 90)
        (effects (font (size 1.27 1.27)) (justify left) hide)
      )
      (property "Datasheet" "~" (id 3) (at 0 -1.27 0)
        (effects (font (size 1.27 1.27)) hide)
      )
      (property "ki_keywords" "resistor variable light sensitive opto LDR" (id 4) (at 0 0 0)
        (effects (font (size 1.27 1.27)) hide)
      )
      (property "ki_description" "Photoresistor" (id 5) (at 0 0 0)
        (effects (font (size 1.27 1.27)) hide)
      )
      (property "ki_fp_filters" "*LDR* R?LDR*" (id 6) (at 0 0 0)
        (effects (font (size 1.27 1.27)) hide)
      )
      (symbol "R_Photo_0_1"
        (rectangle (start -1.016 2.54) (end 1.016 -2.54)
          (stroke (width 0.254) (type default) (color 0 0 0 0))
          (fill (type none))
        )
        (polyline
          (pts
            (xy -1.524 -2.286)
            (xy -4.064 0.254)
          )
          (stroke (width 0) (type default) (color 0 0 0 0))
          (fill (type none))
        )
        (polyline
          (pts
            (xy -1.524 -2.286)
            (xy -2.286 -2.286)
          )
          (stroke (width 0) (type default) (color 0 0 0 0))
          (fill (type none))
        )
        (polyline
          (pts
            (xy -1.524 -2.286)
            (xy -1.524 -1.524)
          )
          (stroke (width 0) (type default) (color 0 0 0 0))
          (fill (type none))
        )
        (polyline
          (pts
            (xy -1.524 -0.762)
            (xy -4.064 1.778)
          )
          (stroke (width 0) (type default) (color 0 0 0 0))
          (fill (type none))
        )
        (polyline
          (pts
            (xy -1.524 -0.762)
            (xy -2.286 -0.762)
          )
          (stroke (width 0) (type default) (color 0 0 0 0))
          (fill (type none))
        )
        (polyline
          (pts
            (xy -1.524 -0.762)
            (xy -1.524 0)
          )
          (stroke (width 0) (type default) (color 0 0 0 0))
          (fill (type none))
        )
      )
      (symbol "R_Photo_1_1"
        (pin passive line (at 0 3.81 270) (length 1.27)
          (name "~" (effects (font (size 1.27 1.27))))
          (number "1" (effects (font (size 1.27 1.27))))
        )
        (pin passive line (at 0 -3.81 90) (length 1.27)
          (name "~" (effects (font (size 1.27 1.27))))
          (number "2" (effects (font (size 1.27 1.27))))
        )
      )
    )
    (symbol "Sensor_Temperature:LM75B" (pin_names (offset 1.016)) (in_bom yes) (on_board yes)
      (property "Reference" "U" (id 0) (at -6.35 11.43 0)
        (effects (font (size 1.27 1.27)))
      )
      (property "Value" "LM75B" (id 1) (at 0 11.43 0)
        (effects (font (size 1.27 1.27)) (justify left))
      )
      (property "Footprint" "" (id 2) (at 0 0 0)
        (effects (font (size 1.27 1.27)) hide)
      )
      (property "Datasheet" "http://www.ti.com/lit/ds/symlink/lm75b.pdf" (id 3) (at 0 0 0)
        (effects (font (size 1.27 1.27)) hide)
      )
      (property "ki_keywords" "Temperature sensor" (id 4) (at 0 0 0)
        (effects (font (size 1.27 1.27)) hide)
      )
      (property "ki_description" "Digital Temperature Sensor & Thermal Watchdog with LP on I2C and bus fault timeout, SOIC-8 and VSSOP-8" (id 5) (at 0 0 0)
        (effects (font (size 1.27 1.27)) hide)
      )
      (property "ki_fp_filters" "SOIC*3.9x4.9mm*P1.27mm* VSSOP*3.0x3.0mm*P0.65mm*" (id 6) (at 0 0 0)
        (effects (font (size 1.27 1.27)) hide)
      )
      (symbol "LM75B_0_1"
        (rectangle (start -7.62 10.16) (end 7.62 -10.16)
          (stroke (width 0.254) (type default) (color 0 0 0 0))
          (fill (type background))
        )
        (circle (center -0.127 -2.54) (radius 1.27)
          (stroke (width 0.254) (type default) (color 0 0 0 0))
          (fill (type outline))
        )
        (polyline
          (pts
            (xy -0.762 0.635)
            (xy -0.127 0.635)
          )
          (stroke (width 0.254) (type default) (color 0 0 0 0))
          (fill (type none))
        )
        (polyline
          (pts
            (xy -0.762 1.27)
            (xy -0.127 1.27)
          )
          (stroke (width 0.254) (type default) (color 0 0 0 0))
          (fill (type none))
        )
        (polyline
          (pts
            (xy -0.762 1.905)
            (xy -0.127 1.905)
          )
          (stroke (width 0.254) (type default) (color 0 0 0 0))
          (fill (type none))
        )
        (polyline
          (pts
            (xy -0.762 2.54)
            (xy -0.127 2.54)
          )
          (stroke (width 0.254) (type default) (color 0 0 0 0))
          (fill (type none))
        )
        (polyline
          (pts
            (xy -0.762 3.175)
            (xy -0.762 0)
          )
          (stroke (width 0.254) (type default) (color 0 0 0 0))
          (fill (type none))
        )
        (polyline
          (pts
            (xy -0.762 3.175)
            (xy -0.127 3.175)
          )
          (stroke (width 0.254) (type default) (color 0 0 0 0))
          (fill (type none))
        )
        (polyline
          (pts
            (xy 0.508 3.175)
            (xy 0.508 0)
          )
          (stroke (width 0.254) (type default) (color 0 0 0 0))
          (fill (type none))
        )
        (rectangle (start 0.508 -1.905) (end -0.762 0)
          (stroke (width 0.254) (type default) (color 0 0 0 0))
          (fill (type outline))
        )
        (arc (start 0.508 3.175) (mid -0.127 3.81) (end -0.762 3.175)
          (stroke (width 0.254) (type default) (color 0 0 0 0))
          (fill (type none))
        )
      )
      (symbol "LM75B_1_1"
        (pin bidirectional line (at -10.16 2.54 0) (length 2.54)
          (name "SDA" (effects (font (size 1.27 1.27))))
          (number "1" (effects (font (size 1.27 1.27))))
        )
        (pin input line (at -10.16 0 0) (length 2.54)
          (name "SCL" (effects (font (size 1.27 1.27))))
          (number "2" (effects (font (size 1.27 1.27))))
        )
        (pin open_collector line (at -10.16 -2.54 0) (length 2.54)
          (name "O.S." (effects (font (size 1.27 1.27))))
          (number "3" (effects (font (size 1.27 1.27))))
        )
        (pin power_in line (at 0 -12.7 90) (length 2.54)
          (name "GND" (effects (font (size 1.27 1.27))))
          (number "4" (effects (font (size 1.27 1.27))))
        )
        (pin input line (at 10.16 -2.54 180) (length 2.54)
          (name "A2" (effects (font (size 1.27 1.27))))
          (number "5" (effects (font (size 1.27 1.27))))
        )
        (pin input line (at 10.16 0 180) (length 2.54)
          (name "A1" (effects (font (size 1.27 1.27))))
          (number "6" (effects (font (size 1.27 1.27))))
        )
        (pin input line (at 10.16 2.54 180) (length 2.54)
          (name "A0" (effects (font (size 1.27 1.27))))
          (number "7" (effects (font (size 1.27 1.27))))
        )
        (pin power_in line (at 0 12.7 270) (length 2.54)
          (name "+Vs" (effects (font (size 1.27 1.27))))
          (number "8" (effects (font (size 1.27 1.27))))
        )
      )
    )
    (symbol "Switch:SW_Push" (pin_numbers hide) (pin_names (offset 1.016) hide) (in_bom yes) (on_board yes)
      (property "Reference" "SW" (id 0) (at 1.27 2.54 0)
        (effects (font (size 1.27 1.27)) (justify left))
      )
      (property "Value" "SW_Push" (id 1) (at 0 -1.524 0)
        (effects (font (size 1.27 1.27)))
      )
      (property "Footprint" "" (id 2) (at 0 5.08 0)
        (effects (font (size 1.27 1.27)) hide)
      )
      (property "Datasheet" "~" (id 3) (at 0 5.08 0)
        (effects (font (size 1.27 1.27)) hide)
      )
      (property "ki_keywords" "switch normally-open pushbutton push-button" (id 4) (at 0 0 0)
        (effects (font (size 1.27 1.27)) hide)
      )
      (property "ki_description" "Push button switch, generic, two pins" (id 5) (at 0 0 0)
        (effects (font (size 1.27 1.27)) hide)
      )
      (symbol "SW_Push_0_1"
        (circle (center -2.032 0) (radius 0.508)
          (stroke (width 0) (type default) (color 0 0 0 0))
          (fill (type none))
        )
        (polyline
          (pts
            (xy 0 1.27)
            (xy 0 3.048)
          )
          (stroke (width 0) (type default) (color 0 0 0 0))
          (fill (type none))
        )
        (polyline
          (pts
            (xy 2.54 1.27)
            (xy -2.54 1.27)
          )
          (stroke (width 0) (type default) (color 0 0 0 0))
          (fill (type none))
        )
        (circle (center 2.032 0) (radius 0.508)
          (stroke (width 0) (type default) (color 0 0 0 0))
          (fill (type none))
        )
        (pin passive line (at -5.08 0 0) (length 2.54)
          (name "1" (effects (font (size 1.27 1.27))))
          (number "1" (effects (font (size 1.27 1.27))))
        )
        (pin passive line (at 5.08 0 180) (length 2.54)
          (name "2" (effects (font (size 1.27 1.27))))
          (number "2" (effects (font (size 1.27 1.27))))
        )
      )
    )
    (symbol "power:GND" (power) (pin_names (offset 0)) (in_bom yes) (on_board yes)
      (property "Reference" "#PWR" (id 0) (at 0 -6.35 0)
        (effects (font (size 1.27 1.27)) hide)
      )
      (property "Value" "GND" (id 1) (at 0 -3.81 0)
        (effects (font (size 1.27 1.27)))
      )
      (property "Footprint" "" (id 2) (at 0 0 0)
        (effects (font (size 1.27 1.27)) hide)
      )
      (property "Datasheet" "" (id 3) (at 0 0 0)
        (effects (font (size 1.27 1.27)) hide)
      )
      (property "ki_keywords" "power-flag" (id 4) (at 0 0 0)
        (effects (font (size 1.27 1.27)) hide)
      )
      (property "ki_description" "Power symbol creates a global label with name \"GND\" , ground" (id 5) (at 0 0 0)
        (effects (font (size 1.27 1.27)) hide)
      )
      (symbol "GND_0_1"
        (polyline
          (pts
            (xy 0 0)
            (xy 0 -1.27)
            (xy 1.27 -1.27)
            (xy 0 -2.54)
            (xy -1.27 -1.27)
            (xy 0 -1.27)
          )
          (stroke (width 0) (type default) (color 0 0 0 0))
          (fill (type none))
        )
      )
      (symbol "GND_1_1"
        (pin power_in line (at 0 0 270) (length 0) hide
          (name "GND" (effects (font (size 1.27 1.27))))
          (number "1" (effects (font (size 1.27 1.27))))
        )
      )
    )
  )


  (junction (at 229.87 137.16) (diameter 0) (color 0 0 0 0)
    (uuid 17f86657-1c91-47fa-b4d7-edd164fa4881)
  )
  (junction (at 147.32 139.7) (diameter 0) (color 0 0 0 0)
    (uuid 3ff7dd96-621c-4a88-987a-6befb4074700)
  )
  (junction (at 229.87 102.87) (diameter 0) (color 0 0 0 0)
    (uuid 516dedd7-0abb-4c46-8b20-a3e686b384d0)
  )
  (junction (at 133.35 95.25) (diameter 0) (color 0 0 0 0)
    (uuid 60448563-a834-4267-8da2-a3957aeac5f7)
  )
  (junction (at 133.35 113.03) (diameter 0) (color 0 0 0 0)
    (uuid 6a957a57-8e4d-459e-8046-5aaacfad32ee)
  )
  (junction (at 226.06 134.62) (diameter 0) (color 0 0 0 0)
    (uuid 6f8c256b-203c-41ad-be4f-9b44eb8c7846)
  )
  (junction (at 237.49 102.87) (diameter 0) (color 0 0 0 0)
    (uuid 8f175042-36b0-415f-9fbf-dafb32de3f2e)
  )
  (junction (at 222.25 139.7) (diameter 0) (color 0 0 0 0)
    (uuid 8f6849b2-9625-4857-8571-f74a27ebc9a9)
  )
  (junction (at 147.32 120.65) (diameter 0) (color 0 0 0 0)
    (uuid a6a5df31-23d6-46ee-a4bb-0b2d041b5df1)
  )
  (junction (at 245.11 102.87) (diameter 0) (color 0 0 0 0)
    (uuid f4c4aab0-6496-4e4e-9c83-143fcdb27c4f)
  )

  (wire (pts (xy 147.32 97.79) (xy 147.32 95.25))
    (stroke (width 0) (type default) (color 0 0 0 0))
    (uuid 02c204a9-09fd-4295-94c6-a37c915310ed)
  )
  (polyline (pts (xy 284.48 83.82) (xy 284.48 165.1))
    (stroke (width 0) (type default) (color 0 0 0 0))
    (uuid 0730ab8b-8800-4efd-8a32-32110996c7a0)
  )

  (wire (pts (xy 229.87 109.22) (xy 229.87 102.87))
    (stroke (width 0) (type default) (color 0 0 0 0))
    (uuid 07a903db-a5a7-4415-ad58-a333c946a8bb)
  )
  (wire (pts (xy 229.87 118.11) (xy 226.06 118.11))
    (stroke (width 0) (type default) (color 0 0 0 0))
    (uuid 0aff7e80-76ae-40e2-979d-13ccc214b40b)
  )
  (wire (pts (xy 245.11 102.87) (xy 245.11 99.06))
    (stroke (width 0) (type default) (color 0 0 0 0))
    (uuid 0ce55ab1-6ec9-41ae-97ab-1a8b61be7c94)
  )
  (wire (pts (xy 133.35 113.03) (xy 186.69 113.03))
    (stroke (width 0) (type default) (color 0 0 0 0))
    (uuid 0d3e5b8c-68e8-4a5d-9e19-25b56b9ee13c)
  )
  (wire (pts (xy 147.32 105.41) (xy 147.32 120.65))
    (stroke (width 0) (type default) (color 0 0 0 0))
    (uuid 164364fc-b2e5-4291-9e7c-db75b3e2b39c)
  )
  (wire (pts (xy 229.87 116.84) (xy 229.87 118.11))
    (stroke (width 0) (type default) (color 0 0 0 0))
    (uuid 1a760d09-f7b1-4362-a282-e54a53abca58)
  )
  (wire (pts (xy 229.87 137.16) (xy 229.87 153.67))
    (stroke (width 0) (type default) (color 0 0 0 0))
    (uuid 1bd2f9c0-bf20-4cbe-8ea1-d9bdd41ef37f)
  )
  (wire (pts (xy 133.35 130.81) (xy 133.35 123.19))
    (stroke (width 0) (type default) (color 0 0 0 0))
    (uuid 1cd8e2a0-99d1-450c-aa49-c54d9399ba6b)
  )
  (wire (pts (xy 133.35 95.25) (xy 133.35 97.79))
    (stroke (width 0) (type default) (color 0 0 0 0))
    (uuid 21e8b061-e079-4c1c-b04f-797d22773789)
  )
  (wire (pts (xy 222.25 102.87) (xy 229.87 102.87))
    (stroke (width 0) (type default) (color 0 0 0 0))
    (uuid 2809d02f-edcf-4dfb-bf00-37b7a303a65a)
  )
  (wire (pts (xy 147.32 120.65) (xy 190.5 120.65))
    (stroke (width 0) (type default) (color 0 0 0 0))
    (uuid 2b217e4d-6b8f-43e5-9eb4-2cc63adf320c)
  )
  (wire (pts (xy 121.92 95.25) (xy 133.35 95.25))
    (stroke (width 0) (type default) (color 0 0 0 0))
    (uuid 2bd99313-d5f4-432d-b8e1-3882db8cbd4c)
  )
  (wire (pts (xy 147.32 134.62) (xy 147.32 139.7))
    (stroke (width 0) (type default) (color 0 0 0 0))
    (uuid 2f94beae-8c9d-4720-acd2-f95138d71df9)
  )
  (wire (pts (xy 271.78 135.89) (xy 271.78 143.51))
    (stroke (width 0) (type default) (color 0 0 0 0))
    (uuid 3c0f1454-c2fc-426d-86cc-7a2ea874c563)
  )
  (polyline (pts (xy 212.09 161.29) (xy 212.09 165.1))
    (stroke (width 0) (type default) (color 0 0 0 0))
    (uuid 3e75080a-ff4e-4f05-b477-5f45425fec8f)
  )

  (wire (pts (xy 226.06 151.13) (xy 222.25 151.13))
    (stroke (width 0) (type default) (color 0 0 0 0))
    (uuid 407ad327-e5c0-4c58-9460-efcf6f3c38b8)
  )
  (polyline (pts (xy 284.48 165.1) (xy 212.09 165.1))
    (stroke (width 0) (type default) (color 0 0 0 0))
    (uuid 4e1bf2e8-84f0-4f11-9a75-6e46e06adbfc)
  )

  (wire (pts (xy 133.35 95.25) (xy 147.32 95.25))
    (stroke (width 0) (type default) (color 0 0 0 0))
    (uuid 504626df-f1a6-43c0-bbdd-dc747f2c1a46)
  )
  (polyline (pts (xy 97.79 165.1) (xy 212.09 165.1))
    (stroke (width 0) (type default) (color 0 0 0 0))
    (uuid 51dccc05-2fc1-4f66-924d-c79d00552a48)
  )
  (polyline (pts (xy 212.09 83.82) (xy 97.79 83.82))
    (stroke (width 0) (type default) (color 0 0 0 0))
    (uuid 578792be-bc65-40ac-9353-2bbbe538bafc)
  )

  (wire (pts (xy 245.11 124.46) (xy 245.11 102.87))
    (stroke (width 0) (type default) (color 0 0 0 0))
    (uuid 62898a9f-94c5-4ea2-8cd9-20b30098ce02)
  )
  (wire (pts (xy 229.87 121.92) (xy 237.49 121.92))
    (stroke (width 0) (type default) (color 0 0 0 0))
    (uuid 6bcc063d-0440-4fae-8f60-8ce8939f0bcf)
  )
  (wire (pts (xy 139.7 154.94) (xy 147.32 154.94))
    (stroke (width 0) (type default) (color 0 0 0 0))
    (uuid 6d6a9c68-7f32-4b6f-8c95-fb46082ca833)
  )
  (wire (pts (xy 125.73 154.94) (xy 132.08 154.94))
    (stroke (width 0) (type default) (color 0 0 0 0))
    (uuid 6fcf4b5e-18db-42f6-af49-00726ee0f07e)
  )
  (polyline (pts (xy 212.09 83.82) (xy 284.48 83.82))
    (stroke (width 0) (type default) (color 0 0 0 0))
    (uuid 72f1147b-f045-4218-926c-0baeee0d27ea)
  )

  (wire (pts (xy 133.35 105.41) (xy 133.35 113.03))
    (stroke (width 0) (type default) (color 0 0 0 0))
    (uuid 78257f4a-280b-40c6-bfcd-1a927e7af789)
  )
  (wire (pts (xy 222.25 139.7) (xy 222.25 151.13))
    (stroke (width 0) (type default) (color 0 0 0 0))
    (uuid 806ca056-aff4-4bca-a553-6a2264dee3f6)
  )
  (wire (pts (xy 234.95 139.7) (xy 222.25 139.7))
    (stroke (width 0) (type default) (color 0 0 0 0))
    (uuid 8516f618-2846-4714-85cb-99b94aa8e391)
  )
  (wire (pts (xy 237.49 102.87) (xy 245.11 102.87))
    (stroke (width 0) (type default) (color 0 0 0 0))
    (uuid 8bd694a3-379d-4499-b0dd-50c9408e2a49)
  )
  (wire (pts (xy 245.11 102.87) (xy 255.27 102.87))
    (stroke (width 0) (type default) (color 0 0 0 0))
    (uuid 8f6999f5-dc78-43b0-8fa3-d632446e68d4)
  )
  (wire (pts (xy 121.92 90.17) (xy 121.92 95.25))
    (stroke (width 0) (type default) (color 0 0 0 0))
    (uuid 974da820-1edb-429a-84be-9bf691d43681)
  )
  (wire (pts (xy 222.25 109.22) (xy 222.25 102.87))
    (stroke (width 0) (type default) (color 0 0 0 0))
    (uuid a1a17e5d-9622-4894-aefd-718282a6ebc9)
  )
  (wire (pts (xy 229.87 102.87) (xy 237.49 102.87))
    (stroke (width 0) (type default) (color 0 0 0 0))
    (uuid a29152ba-62f6-48d3-9e45-c8154083a1ba)
  )
  (wire (pts (xy 147.32 120.65) (xy 147.32 127))
    (stroke (width 0) (type default) (color 0 0 0 0))
    (uuid a6cad993-2422-4364-8096-2078a759cb6f)
  )
  (wire (pts (xy 237.49 109.22) (xy 237.49 102.87))
    (stroke (width 0) (type default) (color 0 0 0 0))
    (uuid a9097a2a-9fde-42c6-a52b-6da2db85db8c)
  )
  (polyline (pts (xy 212.09 161.29) (xy 212.09 83.82))
    (stroke (width 0) (type default) (color 0 0 0 0))
    (uuid aa22dcdb-7ffc-48d1-a2d5-4b4a47f2813b)
  )

  (wire (pts (xy 226.06 134.62) (xy 234.95 134.62))
    (stroke (width 0) (type default) (color 0 0 0 0))
    (uuid b26cb998-ef17-4886-88e9-0fd58623d2f2)
  )
  (wire (pts (xy 147.32 139.7) (xy 147.32 140.97))
    (stroke (width 0) (type default) (color 0 0 0 0))
    (uuid b96b51b9-4f44-4689-a458-8897b2e003b7)
  )
  (wire (pts (xy 229.87 137.16) (xy 234.95 137.16))
    (stroke (width 0) (type default) (color 0 0 0 0))
    (uuid c0f82597-84cf-476a-a958-f1fd455852c1)
  )
  (wire (pts (xy 271.78 121.92) (xy 271.78 128.27))
    (stroke (width 0) (type default) (color 0 0 0 0))
    (uuid c26b5e1b-cc90-4133-9352-3657147f8158)
  )
  (wire (pts (xy 226.06 118.11) (xy 226.06 134.62))
    (stroke (width 0) (type default) (color 0 0 0 0))
    (uuid c5e93afe-a065-4e4b-b1ba-89a39a4252f6)
  )
  (polyline (pts (xy 97.79 83.82) (xy 97.79 165.1))
    (stroke (width 0) (type default) (color 0 0 0 0))
    (uuid c8fd2200-2bba-41d5-a88f-a1db265b500e)
  )

  (wire (pts (xy 110.49 154.94) (xy 115.57 154.94))
    (stroke (width 0) (type default) (color 0 0 0 0))
    (uuid d1af8ff1-df7c-4fe1-bbf6-2f8f953887df)
  )
  (wire (pts (xy 226.06 134.62) (xy 226.06 151.13))
    (stroke (width 0) (type default) (color 0 0 0 0))
    (uuid debb0ed8-d076-4ce0-8a8b-4e616677bb1d)
  )
  (wire (pts (xy 222.25 139.7) (xy 222.25 116.84))
    (stroke (width 0) (type default) (color 0 0 0 0))
    (uuid e3a72a53-357c-45bc-b27b-fbd866704288)
  )
  (wire (pts (xy 237.49 116.84) (xy 237.49 121.92))
    (stroke (width 0) (type default) (color 0 0 0 0))
    (uuid e52ad66d-4e2c-412b-a57b-0fe0eb3b445e)
  )
  (wire (pts (xy 229.87 121.92) (xy 229.87 137.16))
    (stroke (width 0) (type default) (color 0 0 0 0))
    (uuid ec77f04f-e7dc-48eb-a482-9f432c28059a)
  )
  (wire (pts (xy 255.27 105.41) (xy 255.27 102.87))
    (stroke (width 0) (type default) (color 0 0 0 0))
    (uuid f079dc59-1902-4f60-91a5-aa85c9a137cd)
  )
  (wire (pts (xy 271.78 99.06) (xy 271.78 114.3))
    (stroke (width 0) (type default) (color 0 0 0 0))
    (uuid f370e8ce-1c5d-4c67-a2a2-b5b650b7e761)
  )
  (wire (pts (xy 133.35 113.03) (xy 133.35 115.57))
    (stroke (width 0) (type default) (color 0 0 0 0))
    (uuid f64fe2cb-1401-4ba7-8212-0e1cb29ad247)
  )

  (text "DIGITAL SENSOR CIRCUIT\n" (at 256.54 88.9 0)
    (effects (font (size 1.27 1.27)) (justify left bottom))
    (uuid 4ac82b94-3a84-4444-86fc-8127e6f327a0)
  )
  (text "#Pin 1 on the STM\n" (at 124.46 88.9 0)
    (effects (font (size 1.27 1.27)) (justify left bottom))
    (uuid 79bb5da5-8e1b-44ce-8df3-1143deadf06c)
  )
  (text "ANALOG SENSOR CIRCUIT\n" (at 182.88 88.9 0)
    (effects (font (size 1.27 1.27)) (justify left bottom))
    (uuid f3e13532-3999-4d1f-800f-4b9a7b3c3e9d)
  )

  (global_label "1" (shape input) (at 245.11 99.06 90) (fields_autoplaced)
    (effects (font (size 1.27 1.27)) (justify left))
    (uuid 0bc65bc2-693a-47b1-adac-837a8711cdc4)
    (property "Intersheet References" "${INTERSHEET_REFS}" (id 0) (at 245.0306 95.4374 90)
      (effects (font (size 1.27 1.27)) (justify left) hide)
    )
  )
  (global_label "PC1" (shape input) (at 190.5 120.65 0) (fields_autoplaced)
    (effects (font (size 1.27 1.27)) (justify left))
    (uuid 12f83261-92f5-4570-86e3-b1266748d368)
    (property "Intersheet References" "${INTERSHEET_REFS}" (id 0) (at 196.6626 120.5706 0)
      (effects (font (size 1.27 1.27)) (justify left) hide)
    )
  )
  (global_label "PB1" (shape input) (at 255.27 139.7 0) (fields_autoplaced)
    (effects (font (size 1.27 1.27)) (justify left))
    (uuid 305cf901-4992-4aab-9fd2-a6a1ca1453d8)
    (property "Intersheet References" "${INTERSHEET_REFS}" (id 0) (at 261.4326 139.6206 0)
      (effects (font (size 1.27 1.27)) (justify left) hide)
    )
  )
  (global_label "CLK" (shape input) (at 229.87 153.67 270) (fields_autoplaced)
    (effects (font (size 1.27 1.27)) (justify right))
    (uuid 4a49ca30-9033-41cf-b8ec-cbd21b87abc6)
    (property "Intersheet References" "${INTERSHEET_REFS}" (id 0) (at 229.7906 159.6512 90)
      (effects (font (size 1.27 1.27)) (justify right) hide)
    )
  )
  (global_label "1" (shape input) (at 110.49 154.94 180) (fields_autoplaced)
    (effects (font (size 1.27 1.27)) (justify right))
    (uuid 573e9ee3-2cb1-4dcd-9a79-29cc575f61bd)
    (property "Intersheet References" "${INTERSHEET_REFS}" (id 0) (at 106.8674 155.0194 0)
      (effects (font (size 1.27 1.27)) (justify right) hide)
    )
  )
  (global_label "PB0" (shape input) (at 255.27 137.16 0) (fields_autoplaced)
    (effects (font (size 1.27 1.27)) (justify left))
    (uuid 64e6e801-c0d4-4d84-9dd9-402a0f9d5878)
    (property "Intersheet References" "${INTERSHEET_REFS}" (id 0) (at 261.4326 137.0806 0)
      (effects (font (size 1.27 1.27)) (justify left) hide)
    )
  )
  (global_label "PC4" (shape input) (at 147.32 154.94 0) (fields_autoplaced)
    (effects (font (size 1.27 1.27)) (justify left))
    (uuid 800f7bf4-701c-4c54-956a-f32175994cd3)
    (property "Intersheet References" "${INTERSHEET_REFS}" (id 0) (at 153.4826 154.8606 0)
      (effects (font (size 1.27 1.27)) (justify left) hide)
    )
  )
  (global_label "1" (shape input) (at 271.78 99.06 90) (fields_autoplaced)
    (effects (font (size 1.27 1.27)) (justify left))
    (uuid 8fe9d18e-9262-4c9b-8c47-3ff123707d71)
    (property "Intersheet References" "${INTERSHEET_REFS}" (id 0) (at 271.7006 95.4374 90)
      (effects (font (size 1.27 1.27)) (justify left) hide)
    )
  )
  (global_label "I2CBUS" (shape input) (at 222.25 151.13 270) (fields_autoplaced)
    (effects (font (size 1.27 1.27)) (justify right))
    (uuid b382912e-bf19-4c4e-b0e3-441a0d3296f0)
    (property "Intersheet References" "${INTERSHEET_REFS}" (id 0) (at 222.1706 160.4374 90)
      (effects (font (size 1.27 1.27)) (justify right) hide)
    )
  )
  (global_label "PC0" (shape input) (at 186.69 113.03 0) (fields_autoplaced)
    (effects (font (size 1.27 1.27)) (justify left))
    (uuid c8d9aed4-d818-4372-8e3b-524fcbc6d233)
    (property "Intersheet References" "${INTERSHEET_REFS}" (id 0) (at 192.8526 112.9506 0)
      (effects (font (size 1.27 1.27)) (justify left) hide)
    )
  )
  (global_label "PC5" (shape input) (at 255.27 134.62 0) (fields_autoplaced)
    (effects (font (size 1.27 1.27)) (justify left))
    (uuid ce5125c3-ce21-4cc0-af84-3874491373b6)
    (property "Intersheet References" "${INTERSHEET_REFS}" (id 0) (at 261.4326 134.5406 0)
      (effects (font (size 1.27 1.27)) (justify left) hide)
    )
  )
  (global_label "1" (shape input) (at 121.92 90.17 90) (fields_autoplaced)
    (effects (font (size 1.27 1.27)) (justify left))
    (uuid e9213a84-53ab-4f06-b123-7889d308b478)
    (property "Intersheet References" "${INTERSHEET_REFS}" (id 0) (at 121.8406 86.5474 90)
      (effects (font (size 1.27 1.27)) (justify left) hide)
    )
  )

  (symbol (lib_id "Device:R") (at 237.49 113.03 0) (unit 1)
    (in_bom yes) (on_board yes) (fields_autoplaced)
    (uuid 077c5790-1788-4f35-97cf-f09dab3f13c7)
    (property "Reference" "R6" (id 0) (at 240.03 111.7599 0)
      (effects (font (size 1.27 1.27)) (justify left))
    )
    (property "Value" "10k" (id 1) (at 240.03 114.2999 0)
      (effects (font (size 1.27 1.27)) (justify left))
    )
    (property "Footprint" "Resistor_SMD:R_0201_0603Metric" (id 2) (at 235.712 113.03 90)
      (effects (font (size 1.27 1.27)) hide)
    )
    (property "Datasheet" "~" (id 3) (at 237.49 113.03 0)
      (effects (font (size 1.27 1.27)) hide)
    )
    (pin "1" (uuid 8016ace4-b164-40ff-a63b-582c2cabda23))
    (pin "2" (uuid aa2698cd-962d-4020-aaef-301339897a9f))
  )

  (symbol (lib_id "power:GND") (at 255.27 113.03 0) (unit 1)
    (in_bom yes) (on_board yes) (fields_autoplaced)
    (uuid 0fa5e5fa-9477-4712-8f05-dd168ee0455a)
    (property "Reference" "#PWR0101" (id 0) (at 255.27 119.38 0)
      (effects (font (size 1.27 1.27)) hide)
    )
    (property "Value" "GND" (id 1) (at 255.27 118.11 0))
    (property "Footprint" "" (id 2) (at 255.27 113.03 0)
      (effects (font (size 1.27 1.27)) hide)
    )
    (property "Datasheet" "" (id 3) (at 255.27 113.03 0)
      (effects (font (size 1.27 1.27)) hide)
    )
    (pin "1" (uuid 6789269f-508b-4c18-974e-f8a726c38b08))
  )

  (symbol (lib_id "Device:R") (at 147.32 101.6 0) (unit 1)
    (in_bom yes) (on_board yes)
    (uuid 101106de-7571-4edf-8239-74dfc5e0968e)
    (property "Reference" "R2" (id 0) (at 149.86 99.0599 0)
      (effects (font (size 1.27 1.27)) (justify left))
    )
    (property "Value" "10K" (id 1) (at 149.86 101.5999 0)
      (effects (font (size 1.27 1.27)) (justify left))
    )
    (property "Footprint" "Resistor_SMD:R_0201_0603Metric" (id 2) (at 153.67 99.06 0)
      (effects (font (size 1.27 1.27)) (justify left) hide)
    )
    (property "Datasheet" "~" (id 3) (at 147.32 101.6 0)
      (effects (font (size 1.27 1.27)) hide)
    )
    (pin "1" (uuid 3cd58b05-9f2f-4dba-8fdd-b8dfd6af0b3d))
    (pin "2" (uuid 146bccde-fd04-4ba9-8bf7-701bfecbe28b))
  )

  (symbol (lib_id "Device:LED") (at 271.78 132.08 90) (unit 1)
    (in_bom yes) (on_board yes) (fields_autoplaced)
    (uuid 2db578cd-b125-49d3-b68b-3360b8f58d41)
    (property "Reference" "LED1" (id 0) (at 275.59 132.3974 90)
      (effects (font (size 1.27 1.27)) (justify right))
    )
    (property "Value" "2V" (id 1) (at 275.59 134.9374 90)
      (effects (font (size 1.27 1.27)) (justify right))
    )
    (property "Footprint" "LED_SMD:LED_0805_2012Metric" (id 2) (at 271.78 132.08 0)
      (effects (font (size 1.27 1.27)) hide)
    )
    (property "Datasheet" "~" (id 3) (at 271.78 132.08 0)
      (effects (font (size 1.27 1.27)) hide)
    )
    (pin "1" (uuid d08f9431-ef8a-42b7-a850-bcd8bb770f1b))
    (pin "2" (uuid 8d3d3e35-82e0-40ba-907a-a8ab9693853e))
  )

  (symbol (lib_id "Device:R") (at 222.25 113.03 0) (unit 1)
    (in_bom yes) (on_board yes) (fields_autoplaced)
    (uuid 3d24ca64-8898-4a21-92dc-4bb372c9b113)
    (property "Reference" "R4" (id 0) (at 224.79 111.7599 0)
      (effects (font (size 1.27 1.27)) (justify left))
    )
    (property "Value" "10k" (id 1) (at 224.79 114.2999 0)
      (effects (font (size 1.27 1.27)) (justify left))
    )
    (property "Footprint" "Resistor_SMD:R_0201_0603Metric" (id 2) (at 220.472 113.03 90)
      (effects (font (size 1.27 1.27)) hide)
    )
    (property "Datasheet" "~" (id 3) (at 222.25 113.03 0)
      (effects (font (size 1.27 1.27)) hide)
    )
    (pin "1" (uuid 2077675b-4d65-4bd8-b725-f0fef34da527))
    (pin "2" (uuid 44520b3c-5b04-43b9-a30e-22180c4b99f4))
  )

  (symbol (lib_id "power:GND") (at 245.11 149.86 0) (unit 1)
    (in_bom yes) (on_board yes) (fields_autoplaced)
    (uuid 423bdb96-090c-4e37-9fa5-c34ce692b088)
    (property "Reference" "#PWR0103" (id 0) (at 245.11 156.21 0)
      (effects (font (size 1.27 1.27)) hide)
    )
    (property "Value" "GND" (id 1) (at 245.11 154.94 0))
    (property "Footprint" "" (id 2) (at 245.11 149.86 0)
      (effects (font (size 1.27 1.27)) hide)
    )
    (property "Datasheet" "" (id 3) (at 245.11 149.86 0)
      (effects (font (size 1.27 1.27)) hide)
    )
    (pin "1" (uuid 1c1a95f1-2fe7-4fb8-8440-6767571a0eb9))
  )

  (symbol (lib_id "power:GND") (at 133.35 130.81 0) (unit 1)
    (in_bom yes) (on_board yes) (fields_autoplaced)
    (uuid 71ac0761-e35f-4982-a617-c67ffde7418c)
    (property "Reference" "#PWR0104" (id 0) (at 133.35 137.16 0)
      (effects (font (size 1.27 1.27)) hide)
    )
    (property "Value" "GND" (id 1) (at 133.35 135.89 0))
    (property "Footprint" "" (id 2) (at 133.35 130.81 0)
      (effects (font (size 1.27 1.27)) hide)
    )
    (property "Datasheet" "" (id 3) (at 133.35 130.81 0)
      (effects (font (size 1.27 1.27)) hide)
    )
    (pin "1" (uuid c84baec6-a6ed-44cd-b8dd-e94fb4139b0c))
  )

  (symbol (lib_id "Device:R") (at 271.78 118.11 0) (unit 1)
    (in_bom yes) (on_board yes) (fields_autoplaced)
    (uuid 831181f3-e07e-4359-85a3-43a55598e402)
    (property "Reference" "R7" (id 0) (at 274.32 116.8399 0)
      (effects (font (size 1.27 1.27)) (justify left))
    )
    (property "Value" "10k" (id 1) (at 274.32 119.3799 0)
      (effects (font (size 1.27 1.27)) (justify left))
    )
    (property "Footprint" "Resistor_SMD:R_0201_0603Metric" (id 2) (at 270.002 118.11 90)
      (effects (font (size 1.27 1.27)) hide)
    )
    (property "Datasheet" "~" (id 3) (at 271.78 118.11 0)
      (effects (font (size 1.27 1.27)) hide)
    )
    (pin "1" (uuid 87f7a973-810d-415b-bdda-ed5637e0d859))
    (pin "2" (uuid b83c0b65-9035-44f4-9939-bf63baaf6b52))
  )

  (symbol (lib_id "Device:R_Photo") (at 133.35 119.38 0) (unit 1)
    (in_bom yes) (on_board yes)
    (uuid 90369ffc-d873-4b5f-ab01-ddf820143b6f)
    (property "Reference" "LDR1" (id 0) (at 135.89 120.65 0)
      (effects (font (size 1.27 1.27)) (justify left))
    )
    (property "Value" "10K - 0.2M" (id 1) (at 134.62 124.46 0)
      (effects (font (size 1.27 1.27)) (justify left))
    )
    (property "Footprint" "Resistor_SMD:R_0201_0603Metric" (id 2) (at 128.27 140.97 90)
      (effects (font (size 1.27 1.27)) (justify left) hide)
    )
    (property "Datasheet" "~" (id 3) (at 133.35 120.65 0)
      (effects (font (size 1.27 1.27)) hide)
    )
    (pin "1" (uuid cdbf1ee6-81c2-4bfd-bba6-11f59282b504))
    (pin "2" (uuid 8cf7611f-f853-4d54-8ee1-ecd482970881))
  )

  (symbol (lib_id "Device:C") (at 255.27 109.22 0) (unit 1)
    (in_bom yes) (on_board yes) (fields_autoplaced)
    (uuid 9037e712-6dac-4149-9217-4b638d2b14ec)
    (property "Reference" "C1" (id 0) (at 259.08 107.9499 0)
      (effects (font (size 1.27 1.27)) (justify left))
    )
    (property "Value" "0.1u" (id 1) (at 259.08 110.4899 0)
      (effects (font (size 1.27 1.27)) (justify left))
    )
    (property "Footprint" "Capacitor_SMD:C_0201_0603Metric" (id 2) (at 256.2352 113.03 0)
      (effects (font (size 1.27 1.27)) hide)
    )
    (property "Datasheet" "~" (id 3) (at 255.27 109.22 0)
      (effects (font (size 1.27 1.27)) hide)
    )
    (pin "1" (uuid f38952df-60c4-4af3-a8ba-e2edfce92682))
    (pin "2" (uuid e1983b44-0ea3-4cf4-a915-0f5d720e5c88))
  )

  (symbol (lib_id "Device:R") (at 133.35 101.6 0) (unit 1)
    (in_bom yes) (on_board yes)
    (uuid 98f7a6a3-ac69-4163-be23-0a2022dda0b0)
    (property "Reference" "R1" (id 0) (at 135.89 99.0599 0)
      (effects (font (size 1.27 1.27)) (justify left))
    )
    (property "Value" "10K" (id 1) (at 135.89 101.5999 0)
      (effects (font (size 1.27 1.27)) (justify left))
    )
    (property "Footprint" "Resistor_SMD:R_0201_0603Metric" (id 2) (at 100.33 105.41 0)
      (effects (font (size 1.27 1.27)) (justify left) hide)
    )
    (property "Datasheet" "~" (id 3) (at 133.35 101.6 0)
      (effects (font (size 1.27 1.27)) hide)
    )
    (pin "1" (uuid ef9e2014-f971-4117-ab40-0672621efad5))
    (pin "2" (uuid 74af2b77-c1c9-4eae-bff8-96bc046b8c06))
  )

  (symbol (lib_id "Device:R") (at 229.87 113.03 0) (unit 1)
    (in_bom yes) (on_board yes) (fields_autoplaced)
    (uuid 9ea0586a-1a38-405f-a9db-cc7c88b33927)
    (property "Reference" "R5" (id 0) (at 232.41 111.7599 0)
      (effects (font (size 1.27 1.27)) (justify left))
    )
    (property "Value" "10k" (id 1) (at 232.41 114.2999 0)
      (effects (font (size 1.27 1.27)) (justify left))
    )
    (property "Footprint" "Resistor_SMD:R_0201_0603Metric" (id 2) (at 228.092 113.03 90)
      (effects (font (size 1.27 1.27)) hide)
    )
    (property "Datasheet" "~" (id 3) (at 229.87 113.03 0)
      (effects (font (size 1.27 1.27)) hide)
    )
    (pin "1" (uuid 65c1889f-6c31-4bfa-b925-bccebe70e0bd))
    (pin "2" (uuid 8b26b427-5c95-4ed4-9360-47ff3a84c4a0))
  )

  (symbol (lib_id "Switch:SW_Push") (at 120.65 154.94 0) (unit 1)
    (in_bom yes) (on_board yes) (fields_autoplaced)
    (uuid b35b18ad-0223-451a-bb16-91d2a55a057e)
    (property "Reference" "SW1" (id 0) (at 120.65 147.32 0))
    (property "Value" "Push Button 1" (id 1) (at 120.65 149.86 0))
    (property "Footprint" "" (id 2) (at 120.65 149.86 0)
      (effects (font (size 1.27 1.27)) hide)
    )
    (property "Datasheet" "~" (id 3) (at 120.65 149.86 0)
      (effects (font (size 1.27 1.27)) hide)
    )
    (pin "1" (uuid 601f13d9-5674-455f-a6da-02b3b9a96e83))
    (pin "2" (uuid eeedda70-1ec1-4c69-bb88-3ca3844aeac4))
  )

  (symbol (lib_id "power:GND") (at 271.78 143.51 0) (unit 1)
    (in_bom yes) (on_board yes) (fields_autoplaced)
    (uuid d6dbf148-16e8-45a4-9d65-5d8d88d18778)
    (property "Reference" "#PWR0102" (id 0) (at 271.78 149.86 0)
      (effects (font (size 1.27 1.27)) hide)
    )
    (property "Value" "GND" (id 1) (at 271.78 148.59 0))
    (property "Footprint" "" (id 2) (at 271.78 143.51 0)
      (effects (font (size 1.27 1.27)) hide)
    )
    (property "Datasheet" "" (id 3) (at 271.78 143.51 0)
      (effects (font (size 1.27 1.27)) hide)
    )
    (pin "1" (uuid 2f34f1e1-f1f4-4c01-8b3d-ac7a42885be3))
  )

  (symbol (lib_id "Sensor_Temperature:LM75B") (at 245.11 137.16 0) (unit 1)
    (in_bom yes) (on_board yes) (fields_autoplaced)
    (uuid ee0404f1-775a-4f9c-8b75-b98271704a27)
    (property "Reference" "TempSensor1" (id 0) (at 247.1294 121.92 0)
      (effects (font (size 1.27 1.27)) (justify left))
    )
    (property "Value" "LM75B" (id 1) (at 247.1294 124.46 0)
      (effects (font (size 1.27 1.27)) (justify left))
    )
    (property "Footprint" "" (id 2) (at 245.11 137.16 0)
      (effects (font (size 1.27 1.27)) hide)
    )
    (property "Datasheet" "http://www.ti.com/lit/ds/symlink/lm75b.pdf" (id 3) (at 245.11 137.16 0)
      (effects (font (size 1.27 1.27)) hide)
    )
    (pin "1" (uuid c7805169-6eac-4169-bc09-8c729fa9a999))
    (pin "2" (uuid 22c020e6-2e89-4445-9634-9e5d2a6aac9f))
    (pin "3" (uuid eceec509-967d-416a-8b0d-a6d27ff34a97))
    (pin "4" (uuid 7289e297-9e18-4e41-96a9-52118cd07972))
    (pin "5" (uuid 0e680b21-e6f2-45ae-8759-a88ac3e6122b))
    (pin "6" (uuid de8978b2-2fe6-4ee6-825e-8833fa86e063))
    (pin "7" (uuid bb9daf65-ddac-4d02-9496-0db71a8ee1c5))
    (pin "8" (uuid 166cc9f8-2195-46c9-879b-2772f3aa013f))
  )

  (symbol (lib_id "power:GND") (at 147.32 139.7 0) (unit 1)
    (in_bom yes) (on_board yes) (fields_autoplaced)
    (uuid f8136d71-f8bb-42f8-8522-dfbbe0cbfa96)
    (property "Reference" "#PWR0105" (id 0) (at 147.32 146.05 0)
      (effects (font (size 1.27 1.27)) hide)
    )
    (property "Value" "GND" (id 1) (at 147.32 144.78 0))
    (property "Footprint" "" (id 2) (at 147.32 139.7 0)
      (effects (font (size 1.27 1.27)) hide)
    )
    (property "Datasheet" "" (id 3) (at 147.32 139.7 0)
      (effects (font (size 1.27 1.27)) hide)
    )
    (pin "1" (uuid 5b409e6c-82e9-4425-b1e0-9b85a8363078))
  )

  (symbol (lib_id "Device:R_Photo") (at 147.32 130.81 0) (unit 1)
    (in_bom yes) (on_board yes) (fields_autoplaced)
    (uuid fa169b6f-dc4b-4c93-8168-5cc5b54c32b8)
    (property "Reference" "LDR2" (id 0) (at 149.86 129.5399 0)
      (effects (font (size 1.27 1.27)) (justify left))
    )
    (property "Value" "10k - 0.2M" (id 1) (at 149.86 132.0799 0)
      (effects (font (size 1.27 1.27)) (justify left))
    )
    (property "Footprint" "Resistor_SMD:R_0201_0603Metric" (id 2) (at 149.86 133.3499 0)
      (effects (font (size 1.27 1.27)) (justify left) hide)
    )
    (property "Datasheet" "~" (id 3) (at 147.32 132.08 0)
      (effects (font (size 1.27 1.27)) hide)
    )
    (pin "1" (uuid 4b345a9b-524f-42bb-b2e4-b263e8001917))
    (pin "2" (uuid 19e3e88e-2a3f-4cb8-aaea-925fe4d19978))
  )

  (symbol (lib_id "Device:R") (at 135.89 154.94 270) (unit 1)
    (in_bom yes) (on_board yes)
    (uuid fee6e0a9-3581-4681-828a-d7e7c0b72a48)
    (property "Reference" "R3" (id 0) (at 137.16 149.86 90))
    (property "Value" "1K" (id 1) (at 137.16 152.4 90))
    (property "Footprint" "Resistor_SMD:R_0201_0603Metric" (id 2) (at 142.24 158.75 90)
      (effects (font (size 1.27 1.27)) hide)
    )
    (property "Datasheet" "~" (id 3) (at 135.89 154.94 0)
      (effects (font (size 1.27 1.27)) hide)
    )
    (pin "1" (uuid b68c71cf-bc60-42db-9be0-09ce7c79f3ac))
    (pin "2" (uuid 8781291e-cbb2-406c-8d33-4c9ef34481d5))
  )

  (sheet_instances
    (path "/" (page "1"))
  )

  (symbol_instances
    (path "/0fa5e5fa-9477-4712-8f05-dd168ee0455a"
      (reference "#PWR0101") (unit 1) (value "GND") (footprint "")
    )
    (path "/d6dbf148-16e8-45a4-9d65-5d8d88d18778"
      (reference "#PWR0102") (unit 1) (value "GND") (footprint "")
    )
    (path "/423bdb96-090c-4e37-9fa5-c34ce692b088"
      (reference "#PWR0103") (unit 1) (value "GND") (footprint "")
    )
    (path "/71ac0761-e35f-4982-a617-c67ffde7418c"
      (reference "#PWR0104") (unit 1) (value "GND") (footprint "")
    )
    (path "/f8136d71-f8bb-42f8-8522-dfbbe0cbfa96"
      (reference "#PWR0105") (unit 1) (value "GND") (footprint "")
    )
    (path "/9037e712-6dac-4149-9217-4b638d2b14ec"
      (reference "C1") (unit 1) (value "0.1u") (footprint "Capacitor_SMD:C_0201_0603Metric")
    )
    (path "/90369ffc-d873-4b5f-ab01-ddf820143b6f"
      (reference "LDR1") (unit 1) (value "10K - 0.2M") (footprint "Resistor_SMD:R_0201_0603Metric")
    )
    (path "/fa169b6f-dc4b-4c93-8168-5cc5b54c32b8"
      (reference "LDR2") (unit 1) (value "10k - 0.2M") (footprint "Resistor_SMD:R_0201_0603Metric")
    )
    (path "/2db578cd-b125-49d3-b68b-3360b8f58d41"
      (reference "LED1") (unit 1) (value "2V") (footprint "LED_SMD:LED_0805_2012Metric")
    )
    (path "/98f7a6a3-ac69-4163-be23-0a2022dda0b0"
      (reference "R1") (unit 1) (value "10K") (footprint "Resistor_SMD:R_0201_0603Metric")
    )
    (path "/101106de-7571-4edf-8239-74dfc5e0968e"
      (reference "R2") (unit 1) (value "10K") (footprint "Resistor_SMD:R_0201_0603Metric")
    )
    (path "/fee6e0a9-3581-4681-828a-d7e7c0b72a48"
      (reference "R3") (unit 1) (value "1K") (footprint "Resistor_SMD:R_0201_0603Metric")
    )
    (path "/3d24ca64-8898-4a21-92dc-4bb372c9b113"
      (reference "R4") (unit 1) (value "10k") (footprint "Resistor_SMD:R_0201_0603Metric")
    )
    (path "/9ea0586a-1a38-405f-a9db-cc7c88b33927"
      (reference "R5") (unit 1) (value "10k") (footprint "Resistor_SMD:R_0201_0603Metric")
    )
    (path "/077c5790-1788-4f35-97cf-f09dab3f13c7"
      (reference "R6") (unit 1) (value "10k") (footprint "Resistor_SMD:R_0201_0603Metric")
    )
    (path "/831181f3-e07e-4359-85a3-43a55598e402"
      (reference "R7") (unit 1) (value "10k") (footprint "Resistor_SMD:R_0201_0603Metric")
    )
    (path "/b35b18ad-0223-451a-bb16-91d2a55a057e"
      (reference "SW1") (unit 1) (value "Push Button 1") (footprint "")
    )
    (path "/ee0404f1-775a-4f9c-8b75-b98271704a27"
      (reference "TempSensor1") (unit 1) (value "LM75B") (footprint "")
    )
  )
)
