(export (version "E")
  (design
    (source "C:\\Users\\USER\\Desktop\\eee3088f-group-project\\Schematics\\main\\main.kicad_sch")
    (date "2022/03/18 14:25:31")
    (tool "Eeschema (6.0.2)")
    (sheet (number "1") (name "/") (tstamps "/")
      (title_block
        (title "EEE3088F Template")
        (company "University of Cape Town")
        (rev "V0.0")
        (date "2022-02-21")
        (source "main.kicad_sch")
        (comment (number "1") (value ""))
        (comment (number "2") (value ""))
        (comment (number "3") (value "@Checked By: "))
        (comment (number "4") (value "@Authors: Justin Pead"))
        (comment (number "5") (value ""))
        (comment (number "6") (value ""))
        (comment (number "7") (value ""))
        (comment (number "8") (value ""))
        (comment (number "9") (value ""))))
    (sheet (number "2") (name "/Power/") (tstamps "/d15c8919-7ccc-44b2-8fc4-b04c1b47b6fa/")
      (title_block
        (title "POWER SUBMODULE")
        (company)
        (rev "2")
        (date "2022-03-11")
        (source "power.kicad_sch")
        (comment (number "1") (value "AUTHOR: JAHAR PERSAD (PRSJAH002)"))
        (comment (number "2") (value ""))
        (comment (number "3") (value ""))
        (comment (number "4") (value ""))
        (comment (number "5") (value ""))
        (comment (number "6") (value ""))
        (comment (number "7") (value ""))
        (comment (number "8") (value ""))
        (comment (number "9") (value ""))))
    (sheet (number "3") (name "/Sensing/") (tstamps "/cf6c12a4-3d95-473d-bafe-8be3892a84e9/")
      (title_block
        (title "Sensor Subsystem Schematic")
        (company "Version 2.0")
        (rev)
        (date)
        (source "sensing.kicad_sch")
        (comment (number "1") (value "Date: 11/03/2022"))
        (comment (number "2") (value "Author: Jonathan Apps"))
        (comment (number "3") (value ""))
        (comment (number "4") (value ""))
        (comment (number "5") (value ""))
        (comment (number "6") (value ""))
        (comment (number "7") (value ""))
        (comment (number "8") (value ""))
        (comment (number "9") (value ""))))
    (sheet (number "4") (name "/microcontroller_interfacing/") (tstamps "/59b42903-2dc7-4011-ab5b-d7b81bd233c3/")
      (title_block
        (title "Microcontroller Submodule Initial Design")
        (company)
        (rev "V2")
        (date "2022-03-11")
        (source "microcontroller_interfacing.kicad_sch")
        (comment (number "1") (value ""))
        (comment (number "2") (value ""))
        (comment (number "3") (value ""))
        (comment (number "4") (value ""))
        (comment (number "5") (value ""))
        (comment (number "6") (value ""))
        (comment (number "7") (value ""))
        (comment (number "8") (value ""))
        (comment (number "9") (value ""))))
    (sheet (number "5") (name "/Outputs/") (tstamps "/6faa355f-9d08-4dfa-b3e6-58b461b2063e/")
      (title_block
        (title)
        (company)
        (rev)
        (date)
        (source "outputs.kicad_sch")
        (comment (number "1") (value ""))
        (comment (number "2") (value ""))
        (comment (number "3") (value ""))
        (comment (number "4") (value ""))
        (comment (number "5") (value ""))
        (comment (number "6") (value ""))
        (comment (number "7") (value ""))
        (comment (number "8") (value ""))
        (comment (number "9") (value "")))))
  (components
    (comp (ref "J1")
      (value "Conn_01x33_Female")
      (footprint "Connector_PinHeader_2.54mm:PinHeader_1x33_P2.54mm_Vertical")
      (fields
        (field (name "Populate") "DNP")
        (field (name "Price") "0"))
      (libsource (lib "Connector") (part "Conn_01x33_Female") (description "Generic connector, single row, 01x33, script generated (kicad-library-utils/schlib/autogen/connector/)"))
      (property (name "LCSC") (value ""))
      (property (name "Populate") (value "DNP"))
      (property (name "Price") (value "0"))
      (property (name "Sheetname") (value ""))
      (property (name "Sheetfile") (value "main.kicad_sch"))
      (sheetpath (names "/") (tstamps "/"))
      (tstamps "ae3c331f-8808-430e-931c-7d9b2cc37f5b"))
    (comp (ref "J2")
      (value "Conn_01x33_Female")
      (footprint "Connector_PinSocket_2.54mm:PinSocket_1x33_P2.54mm_Vertical")
      (fields
        (field (name "Alt_LCSC") "C12345 (example)")
        (field (name "LCSC") "C1234 (example)")
        (field (name "Populate") "DNP")
        (field (name "Price") "0"))
      (libsource (lib "Connector") (part "Conn_01x33_Female") (description "Generic connector, single row, 01x33, script generated (kicad-library-utils/schlib/autogen/connector/)"))
      (property (name "LCSC") (value "C1234 (example)"))
      (property (name "Populate") (value "DNP"))
      (property (name "Alt_LCSC") (value "C12345 (example)"))
      (property (name "Price") (value "0"))
      (property (name "Sheetname") (value ""))
      (property (name "Sheetfile") (value "main.kicad_sch"))
      (sheetpath (names "/") (tstamps "/"))
      (tstamps "94d07718-2fcc-40a0-ad0e-c4bb67bc804a"))
    (comp (ref "J3")
      (value "Conn_01x33_Female")
      (footprint "Connector_PinSocket_2.54mm:PinSocket_1x33_P2.54mm_Vertical")
      (fields
        (field (name "Alt_LCSC") "C12345 (example)")
        (field (name "LCSC") "C1234 (example)")
        (field (name "Populate") "DNP")
        (field (name "Price") "0"))
      (libsource (lib "Connector") (part "Conn_01x33_Female") (description "Generic connector, single row, 01x33, script generated (kicad-library-utils/schlib/autogen/connector/)"))
      (property (name "LCSC") (value "C1234 (example)"))
      (property (name "Populate") (value "DNP"))
      (property (name "Alt_LCSC") (value "C12345 (example)"))
      (property (name "Price") (value "0"))
      (property (name "Sheetname") (value ""))
      (property (name "Sheetfile") (value "main.kicad_sch"))
      (sheetpath (names "/") (tstamps "/"))
      (tstamps "c7050574-27e1-4a80-9dab-24805663409e"))
    (comp (ref "J4")
      (value "Conn_01x33_Female")
      (footprint "Connector_PinHeader_2.54mm:PinHeader_1x33_P2.54mm_Vertical")
      (fields
        (field (name "Populate") "DNP")
        (field (name "Price") "0"))
      (libsource (lib "Connector") (part "Conn_01x33_Female") (description "Generic connector, single row, 01x33, script generated (kicad-library-utils/schlib/autogen/connector/)"))
      (property (name "LCSC") (value ""))
      (property (name "Populate") (value "DNP"))
      (property (name "Price") (value "0"))
      (property (name "Sheetname") (value ""))
      (property (name "Sheetfile") (value "main.kicad_sch"))
      (sheetpath (names "/") (tstamps "/"))
      (tstamps "39549a53-fe72-4509-a12d-de170bbf0433"))
    (comp (ref "BT1")
      (value "3V")
      (footprint "Battery:BatteryHolder_Keystone_1042_1x18650")
      (libsource (lib "Device") (part "Battery") (description "Multiple-cell battery"))
      (property (name "Sheetname") (value "Power"))
      (property (name "Sheetfile") (value "power.kicad_sch"))
      (sheetpath (names "/Power/") (tstamps "/d15c8919-7ccc-44b2-8fc4-b04c1b47b6fa/"))
      (tstamps "46c0f4da-1bc4-4fef-9807-86814a1f36a0"))
    (comp (ref "C1")
      (value "0.33e-6")
      (footprint "Capacitor_SMD:C_0201_0603Metric")
      (libsource (lib "Device") (part "C") (description "Unpolarized capacitor"))
      (property (name "Sheetname") (value "Power"))
      (property (name "Sheetfile") (value "power.kicad_sch"))
      (sheetpath (names "/Power/") (tstamps "/d15c8919-7ccc-44b2-8fc4-b04c1b47b6fa/"))
      (tstamps "3ef38d53-6da0-45be-95eb-aea4a8303d9e"))
    (comp (ref "C2")
      (value "1e-6")
      (footprint "Capacitor_SMD:C_0201_0603Metric")
      (libsource (lib "Device") (part "C") (description "Unpolarized capacitor"))
      (property (name "Sheetname") (value "Power"))
      (property (name "Sheetfile") (value "power.kicad_sch"))
      (sheetpath (names "/Power/") (tstamps "/d15c8919-7ccc-44b2-8fc4-b04c1b47b6fa/"))
      (tstamps "ebb51339-4f33-412c-a139-95e7be521e77"))
    (comp (ref "C3")
      (value "0.1e-6")
      (footprint "Capacitor_SMD:C_0201_0603Metric")
      (libsource (lib "Device") (part "C") (description "Unpolarized capacitor"))
      (property (name "Sheetname") (value "Power"))
      (property (name "Sheetfile") (value "power.kicad_sch"))
      (sheetpath (names "/Power/") (tstamps "/d15c8919-7ccc-44b2-8fc4-b04c1b47b6fa/"))
      (tstamps "21d87a2a-b71a-407d-bf24-214550e61e05"))
    (comp (ref "D1")
      (value "2V")
      (footprint "LED_SMD:LED_0805_2012Metric")
      (libsource (lib "Device") (part "LED") (description "Light emitting diode"))
      (property (name "Sheetname") (value "Power"))
      (property (name "Sheetfile") (value "power.kicad_sch"))
      (sheetpath (names "/Power/") (tstamps "/d15c8919-7ccc-44b2-8fc4-b04c1b47b6fa/"))
      (tstamps "7312d6c1-286a-4148-a5c3-52b226791586"))
    (comp (ref "D2")
      (value "2V")
      (footprint "LED_SMD:LED_0805_2012Metric")
      (libsource (lib "Device") (part "LED") (description "Light emitting diode"))
      (property (name "Sheetname") (value "Power"))
      (property (name "Sheetfile") (value "power.kicad_sch"))
      (sheetpath (names "/Power/") (tstamps "/d15c8919-7ccc-44b2-8fc4-b04c1b47b6fa/"))
      (tstamps "d67d4182-947a-4fe3-a821-19dc6f293135"))
    (comp (ref "J5")
      (value "USB_B_Micro")
      (footprint "Connector_USB:USB_Micro-B_Amphenol_10103594-0001LF_Horizontal")
      (libsource (lib "Connector") (part "USB_B_Micro") (description "USB Micro Type B connector"))
      (property (name "Sheetname") (value "Power"))
      (property (name "Sheetfile") (value "power.kicad_sch"))
      (sheetpath (names "/Power/") (tstamps "/d15c8919-7ccc-44b2-8fc4-b04c1b47b6fa/"))
      (tstamps "5a78f5a6-9fd6-4e15-bd46-f1c21cd07dcd"))
    (comp (ref "Q1")
      (value "2N2222A")
      (footprint "Package_TO_SOT_THT:TO-92")
      (datasheet "http://www.onsemi.com/pub_link/Collateral/2N2219-D.PDF")
      (libsource (lib "Transistor_BJT") (part "2N2219") (description "800mA Ic, 50V Vce, NPN Transistor, TO-39"))
      (property (name "Sheetname") (value "Power"))
      (property (name "Sheetfile") (value "power.kicad_sch"))
      (sheetpath (names "/Power/") (tstamps "/d15c8919-7ccc-44b2-8fc4-b04c1b47b6fa/"))
      (tstamps "68ceb164-4e87-497b-8a22-f04064871a9d"))
    (comp (ref "R1")
      (value "1650")
      (footprint "Resistor_SMD:R_0201_0603Metric")
      (libsource (lib "Device") (part "R_Small_US") (description "Resistor, small US symbol"))
      (property (name "Sheetname") (value "Power"))
      (property (name "Sheetfile") (value "power.kicad_sch"))
      (sheetpath (names "/Power/") (tstamps "/d15c8919-7ccc-44b2-8fc4-b04c1b47b6fa/"))
      (tstamps "768374ff-fcd3-47db-8a39-62497a662f1b"))
    (comp (ref "R2")
      (value "100ohms")
      (footprint "Resistor_SMD:R_0201_0603Metric")
      (libsource (lib "Device") (part "R_Small_US") (description "Resistor, small US symbol"))
      (property (name "Sheetname") (value "Power"))
      (property (name "Sheetfile") (value "power.kicad_sch"))
      (sheetpath (names "/Power/") (tstamps "/d15c8919-7ccc-44b2-8fc4-b04c1b47b6fa/"))
      (tstamps "625263f4-7654-4012-90f5-ccfddd1120cf"))
    (comp (ref "R3")
      (value "31ohms")
      (footprint "Resistor_SMD:R_0201_0603Metric")
      (libsource (lib "Device") (part "R_Small_US") (description "Resistor, small US symbol"))
      (property (name "Sheetname") (value "Power"))
      (property (name "Sheetfile") (value "power.kicad_sch"))
      (sheetpath (names "/Power/") (tstamps "/d15c8919-7ccc-44b2-8fc4-b04c1b47b6fa/"))
      (tstamps "ced83566-388d-4f99-be31-41bdc857545a"))
    (comp (ref "R4")
      (value "160")
      (footprint "Resistor_SMD:R_0201_0603Metric")
      (libsource (lib "Device") (part "R_Small_US") (description "Resistor, small US symbol"))
      (property (name "Sheetname") (value "Power"))
      (property (name "Sheetfile") (value "power.kicad_sch"))
      (sheetpath (names "/Power/") (tstamps "/d15c8919-7ccc-44b2-8fc4-b04c1b47b6fa/"))
      (tstamps "58673395-500d-4ed5-9814-7d20c6079a0e"))
    (comp (ref "R5")
      (value "10")
      (footprint "Resistor_SMD:R_0201_0603Metric")
      (libsource (lib "Device") (part "R_Small_US") (description "Resistor, small US symbol"))
      (property (name "Sheetname") (value "Power"))
      (property (name "Sheetfile") (value "power.kicad_sch"))
      (sheetpath (names "/Power/") (tstamps "/d15c8919-7ccc-44b2-8fc4-b04c1b47b6fa/"))
      (tstamps "8f4ef0b9-f29d-46c7-9734-ada2805ed68f"))
    (comp (ref "R6")
      (value "100ohms")
      (footprint "Resistor_SMD:R_0201_0603Metric")
      (libsource (lib "Device") (part "R_Small_US") (description "Resistor, small US symbol"))
      (property (name "Sheetname") (value "Power"))
      (property (name "Sheetfile") (value "power.kicad_sch"))
      (sheetpath (names "/Power/") (tstamps "/d15c8919-7ccc-44b2-8fc4-b04c1b47b6fa/"))
      (tstamps "a6859af7-c2bb-496d-bf21-a4a555131e66"))
    (comp (ref "R7")
      (value "1000")
      (footprint "Resistor_SMD:R_0201_0603Metric")
      (libsource (lib "Device") (part "R_Small_US") (description "Resistor, small US symbol"))
      (property (name "Sheetname") (value "Power"))
      (property (name "Sheetfile") (value "power.kicad_sch"))
      (sheetpath (names "/Power/") (tstamps "/d15c8919-7ccc-44b2-8fc4-b04c1b47b6fa/"))
      (tstamps "842d48ad-8b90-46f9-8160-46c5ec76f179"))
    (comp (ref "U1")
      (value "TLV316")
      (footprint "Package_TO_SOT_SMD:SOT-23-5")
      (libsource (lib "pspice") (part "OPAMP") (description "OPAmp symbol for simulation only"))
      (property (name "Sheetname") (value "Power"))
      (property (name "Sheetfile") (value "power.kicad_sch"))
      (sheetpath (names "/Power/") (tstamps "/d15c8919-7ccc-44b2-8fc4-b04c1b47b6fa/"))
      (tstamps "cbeff533-8bf9-4fe6-9973-0cc70fc53ee9"))
    (comp (ref "U2")
      (value "TP4054")
      (footprint "Package_TO_SOT_SMD:SOT-23-5")
      (datasheet "http://ww1.microchip.com/downloads/en/DeviceDoc/20001984g.pdf")
      (libsource (lib "Battery_Management") (part "MCP73831-2-OT") (description "Single cell, Li-Ion/Li-Po charge management controller, 4.20V, Tri-State Status Output, in SOT23-5 package"))
      (property (name "Sheetname") (value "Power"))
      (property (name "Sheetfile") (value "power.kicad_sch"))
      (sheetpath (names "/Power/") (tstamps "/d15c8919-7ccc-44b2-8fc4-b04c1b47b6fa/"))
      (tstamps "f9cafb0f-1849-4538-b7c6-d7aca14cae51"))
    (comp (ref "VoltageRegulator1")
      (value "CJ78M05")
      (footprint "Package_TO_SOT_SMD:TO-252-2")
      (datasheet "https://www.onsemi.com/pub/Collateral/MC78M00-D.PDF")
      (libsource (lib "Regulator_Linear") (part "KA78M05_TO252") (description "Positive 500mA 35V Linear Regulator, Fixed Output 5V, TO-252 (D-PAK)"))
      (property (name "Sheetname") (value "Power"))
      (property (name "Sheetfile") (value "power.kicad_sch"))
      (sheetpath (names "/Power/") (tstamps "/d15c8919-7ccc-44b2-8fc4-b04c1b47b6fa/"))
      (tstamps "1571497d-8184-4fd6-bd09-c25349189f56"))
    (comp (ref "C4")
      (value "0.1u")
      (footprint "Capacitor_SMD:C_0201_0603Metric")
      (libsource (lib "Device") (part "C") (description "Unpolarized capacitor"))
      (property (name "Sheetname") (value "Sensing"))
      (property (name "Sheetfile") (value "sensing.kicad_sch"))
      (sheetpath (names "/Sensing/") (tstamps "/cf6c12a4-3d95-473d-bafe-8be3892a84e9/"))
      (tstamps "9037e712-6dac-4149-9217-4b638d2b14ec"))
    (comp (ref "LDR1")
      (value "10K - 0.2M")
      (footprint "Resistor_SMD:R_0201_0603Metric")
      (libsource (lib "Device") (part "R_Photo") (description "Photoresistor"))
      (property (name "Sheetname") (value "Sensing"))
      (property (name "Sheetfile") (value "sensing.kicad_sch"))
      (sheetpath (names "/Sensing/") (tstamps "/cf6c12a4-3d95-473d-bafe-8be3892a84e9/"))
      (tstamps "90369ffc-d873-4b5f-ab01-ddf820143b6f"))
    (comp (ref "LDR2")
      (value "10k - 0.2M")
      (footprint "Resistor_SMD:R_0201_0603Metric")
      (libsource (lib "Device") (part "R_Photo") (description "Photoresistor"))
      (property (name "Sheetname") (value "Sensing"))
      (property (name "Sheetfile") (value "sensing.kicad_sch"))
      (sheetpath (names "/Sensing/") (tstamps "/cf6c12a4-3d95-473d-bafe-8be3892a84e9/"))
      (tstamps "fa169b6f-dc4b-4c93-8168-5cc5b54c32b8"))
    (comp (ref "LED1")
      (value "2V")
      (footprint "LED_SMD:LED_0805_2012Metric")
      (libsource (lib "Device") (part "LED") (description "Light emitting diode"))
      (property (name "Sheetname") (value "Sensing"))
      (property (name "Sheetfile") (value "sensing.kicad_sch"))
      (sheetpath (names "/Sensing/") (tstamps "/cf6c12a4-3d95-473d-bafe-8be3892a84e9/"))
      (tstamps "2db578cd-b125-49d3-b68b-3360b8f58d41"))
    (comp (ref "R8")
      (value "10K")
      (footprint "Resistor_SMD:R_0201_0603Metric")
      (libsource (lib "Device") (part "R") (description "Resistor"))
      (property (name "Sheetname") (value "Sensing"))
      (property (name "Sheetfile") (value "sensing.kicad_sch"))
      (sheetpath (names "/Sensing/") (tstamps "/cf6c12a4-3d95-473d-bafe-8be3892a84e9/"))
      (tstamps "98f7a6a3-ac69-4163-be23-0a2022dda0b0"))
    (comp (ref "R9")
      (value "1K")
      (footprint "Resistor_SMD:R_0201_0603Metric")
      (libsource (lib "Device") (part "R") (description "Resistor"))
      (property (name "Sheetname") (value "Sensing"))
      (property (name "Sheetfile") (value "sensing.kicad_sch"))
      (sheetpath (names "/Sensing/") (tstamps "/cf6c12a4-3d95-473d-bafe-8be3892a84e9/"))
      (tstamps "fee6e0a9-3581-4681-828a-d7e7c0b72a48"))
    (comp (ref "R10")
      (value "10K")
      (footprint "Resistor_SMD:R_0201_0603Metric")
      (libsource (lib "Device") (part "R") (description "Resistor"))
      (property (name "Sheetname") (value "Sensing"))
      (property (name "Sheetfile") (value "sensing.kicad_sch"))
      (sheetpath (names "/Sensing/") (tstamps "/cf6c12a4-3d95-473d-bafe-8be3892a84e9/"))
      (tstamps "101106de-7571-4edf-8239-74dfc5e0968e"))
    (comp (ref "R11")
      (value "10k")
      (footprint "Resistor_SMD:R_0201_0603Metric")
      (libsource (lib "Device") (part "R") (description "Resistor"))
      (property (name "Sheetname") (value "Sensing"))
      (property (name "Sheetfile") (value "sensing.kicad_sch"))
      (sheetpath (names "/Sensing/") (tstamps "/cf6c12a4-3d95-473d-bafe-8be3892a84e9/"))
      (tstamps "3d24ca64-8898-4a21-92dc-4bb372c9b113"))
    (comp (ref "R12")
      (value "10k")
      (footprint "Resistor_SMD:R_0201_0603Metric")
      (libsource (lib "Device") (part "R") (description "Resistor"))
      (property (name "Sheetname") (value "Sensing"))
      (property (name "Sheetfile") (value "sensing.kicad_sch"))
      (sheetpath (names "/Sensing/") (tstamps "/cf6c12a4-3d95-473d-bafe-8be3892a84e9/"))
      (tstamps "9ea0586a-1a38-405f-a9db-cc7c88b33927"))
    (comp (ref "R13")
      (value "10k")
      (footprint "Resistor_SMD:R_0201_0603Metric")
      (libsource (lib "Device") (part "R") (description "Resistor"))
      (property (name "Sheetname") (value "Sensing"))
      (property (name "Sheetfile") (value "sensing.kicad_sch"))
      (sheetpath (names "/Sensing/") (tstamps "/cf6c12a4-3d95-473d-bafe-8be3892a84e9/"))
      (tstamps "077c5790-1788-4f35-97cf-f09dab3f13c7"))
    (comp (ref "R14")
      (value "10k")
      (footprint "Resistor_SMD:R_0201_0603Metric")
      (libsource (lib "Device") (part "R") (description "Resistor"))
      (property (name "Sheetname") (value "Sensing"))
      (property (name "Sheetfile") (value "sensing.kicad_sch"))
      (sheetpath (names "/Sensing/") (tstamps "/cf6c12a4-3d95-473d-bafe-8be3892a84e9/"))
      (tstamps "831181f3-e07e-4359-85a3-43a55598e402"))
    (comp (ref "SW1")
      (value "Push Button 1")
      (footprint "1825910-6:SW_1825910-6-4")
      (libsource (lib "Switch") (part "SW_Push") (description "Push button switch, generic, two pins"))
      (property (name "Sheetname") (value "Sensing"))
      (property (name "Sheetfile") (value "sensing.kicad_sch"))
      (sheetpath (names "/Sensing/") (tstamps "/cf6c12a4-3d95-473d-bafe-8be3892a84e9/"))
      (tstamps "b35b18ad-0223-451a-bb16-91d2a55a057e"))
    (comp (ref "TempSensor1")
      (value "LM75B")
      (footprint "LM75BD:SOIC127P600X175-8N")
      (datasheet "http://www.ti.com/lit/ds/symlink/lm75b.pdf")
      (libsource (lib "Sensor_Temperature") (part "LM75B") (description "Digital Temperature Sensor & Thermal Watchdog with LP on I2C and bus fault timeout, SOIC-8 and VSSOP-8"))
      (property (name "Sheetname") (value "Sensing"))
      (property (name "Sheetfile") (value "sensing.kicad_sch"))
      (sheetpath (names "/Sensing/") (tstamps "/cf6c12a4-3d95-473d-bafe-8be3892a84e9/"))
      (tstamps "ee0404f1-775a-4f9c-8b75-b98271704a27"))
    (comp (ref "C5")
      (value "CT41G-0402-2X1-16V-0.1μF-K(N)")
      (footprint "Capacitor_SMD:C_0201_0603Metric")
      (libsource (lib "Device") (part "C_Small") (description "Unpolarized capacitor, small symbol"))
      (property (name "Sheetname") (value "microcontroller_interfacing"))
      (property (name "Sheetfile") (value "microcontroller_interfacing.kicad_sch"))
      (sheetpath (names "/microcontroller_interfacing/") (tstamps "/59b42903-2dc7-4011-ab5b-d7b81bd233c3/"))
      (tstamps "c322890e-14c1-46f5-b267-f55221ee900f"))
    (comp (ref "D3")
      (value "DIODE")
      (footprint "LED_SMD:LED_0805_2012Metric")
      (fields
        (field (name "Spice_Netlist_Enabled") "Y")
        (field (name "Spice_Primitive") "D"))
      (libsource (lib "Simulation_SPICE") (part "DIODE") (description "Diode, anode on pin 1, for simulation only!"))
      (property (name "Spice_Netlist_Enabled") (value "Y"))
      (property (name "Spice_Primitive") (value "D"))
      (property (name "Sheetname") (value "microcontroller_interfacing"))
      (property (name "Sheetfile") (value "microcontroller_interfacing.kicad_sch"))
      (sheetpath (names "/microcontroller_interfacing/") (tstamps "/59b42903-2dc7-4011-ab5b-d7b81bd233c3/"))
      (tstamps "b0c361d6-e612-4920-8d91-20a53c819a11"))
    (comp (ref "EEPROM1")
      (value "AT24C256C-SSHL-T")
      (footprint "SOIC127P600X175-8N:EEPROM")
      (datasheet "https://www.onsemi.cn/PowerSolutions/document/CAT24C256-D.PDF")
      (libsource (lib "Memory_EEPROM") (part "CAT24C256") (description "256 kb CMOS Serial EEPROM, DIP-8/SOIC-8/TSSOP-8/DFN-8"))
      (property (name "Sheetname") (value "microcontroller_interfacing"))
      (property (name "Sheetfile") (value "microcontroller_interfacing.kicad_sch"))
      (sheetpath (names "/microcontroller_interfacing/") (tstamps "/59b42903-2dc7-4011-ab5b-d7b81bd233c3/"))
      (tstamps "58fae10d-308e-47e5-984f-762671ff5f7b"))
    (comp (ref "FTDI(UART)1")
      (value "CH340C")
      (footprint "CH340C:SOIC127P600X180-16N")
      (datasheet "https://datasheet.lcsc.com/szlcsc/Jiangsu-Qin-Heng-CH340C_C84681.pdf")
      (libsource (lib "Interface_USB") (part "CH340C") (description "USB serial converter, UART, SOIC-16"))
      (property (name "Sheetname") (value "microcontroller_interfacing"))
      (property (name "Sheetfile") (value "microcontroller_interfacing.kicad_sch"))
      (sheetpath (names "/microcontroller_interfacing/") (tstamps "/59b42903-2dc7-4011-ab5b-d7b81bd233c3/"))
      (tstamps "828dbe95-df72-484b-8359-7d74924a9081"))
    (comp (ref "J6")
      (value "USB_B_Micro")
      (footprint "Connector_USB:USB_Micro-B_Amphenol_10103594-0001LF_Horizontal")
      (libsource (lib "Connector") (part "USB_B_Micro") (description "USB Micro Type B connector"))
      (property (name "Sheetname") (value "microcontroller_interfacing"))
      (property (name "Sheetfile") (value "microcontroller_interfacing.kicad_sch"))
      (sheetpath (names "/microcontroller_interfacing/") (tstamps "/59b42903-2dc7-4011-ab5b-d7b81bd233c3/"))
      (tstamps "e9937c4b-0e18-4eb1-91e7-623603244be9"))
    (comp (ref "R15")
      (value "1K")
      (footprint "Resistor_SMD:R_0201_0603Metric")
      (libsource (lib "Device") (part "R_Small_US") (description "Resistor, small US symbol"))
      (property (name "Sheetname") (value "microcontroller_interfacing"))
      (property (name "Sheetfile") (value "microcontroller_interfacing.kicad_sch"))
      (sheetpath (names "/microcontroller_interfacing/") (tstamps "/59b42903-2dc7-4011-ab5b-d7b81bd233c3/"))
      (tstamps "33ba6f87-8078-4806-af25-74c46ae2d6bf"))
    (comp (ref "R16")
      (value "1K")
      (footprint "Resistor_SMD:R_0201_0603Metric")
      (libsource (lib "Device") (part "R_Small_US") (description "Resistor, small US symbol"))
      (property (name "Sheetname") (value "microcontroller_interfacing"))
      (property (name "Sheetfile") (value "microcontroller_interfacing.kicad_sch"))
      (sheetpath (names "/microcontroller_interfacing/") (tstamps "/59b42903-2dc7-4011-ab5b-d7b81bd233c3/"))
      (tstamps "8605ac5c-6a66-4a6f-a591-714fe39f63ae"))
    (comp (ref "R17")
      (value "1K")
      (footprint "Resistor_SMD:R_0201_0603Metric")
      (libsource (lib "Device") (part "R_Small_US") (description "Resistor, small US symbol"))
      (property (name "Sheetname") (value "microcontroller_interfacing"))
      (property (name "Sheetfile") (value "microcontroller_interfacing.kicad_sch"))
      (sheetpath (names "/microcontroller_interfacing/") (tstamps "/59b42903-2dc7-4011-ab5b-d7b81bd233c3/"))
      (tstamps "4183ef67-3359-4cfa-943b-477cd6f5d0fe"))
    (comp (ref "R18")
      (value "4K7")
      (footprint "Resistor_SMD:R_0201_0603Metric")
      (libsource (lib "Device") (part "R_Small_US") (description "Resistor, small US symbol"))
      (property (name "Sheetname") (value "microcontroller_interfacing"))
      (property (name "Sheetfile") (value "microcontroller_interfacing.kicad_sch"))
      (sheetpath (names "/microcontroller_interfacing/") (tstamps "/59b42903-2dc7-4011-ab5b-d7b81bd233c3/"))
      (tstamps "636b8409-938a-4237-b468-d4bb4e15b554"))
    (comp (ref "R19")
      (value "10K")
      (footprint "Resistor_SMD:R_0201_0603Metric")
      (libsource (lib "Device") (part "R_Small_US") (description "Resistor, small US symbol"))
      (property (name "Sheetname") (value "microcontroller_interfacing"))
      (property (name "Sheetfile") (value "microcontroller_interfacing.kicad_sch"))
      (sheetpath (names "/microcontroller_interfacing/") (tstamps "/59b42903-2dc7-4011-ab5b-d7b81bd233c3/"))
      (tstamps "8908a4f3-f0e7-4f12-a2d1-451816db0e7e"))
    (comp (ref "SW2")
      (value "C13828")
      (footprint "1825910-6:SW_1825910-6-4")
      (libsource (lib "Switch") (part "SW_Push_Open") (description "Push button switch, push-to-open, generic, two pins"))
      (property (name "Sheetname") (value "microcontroller_interfacing"))
      (property (name "Sheetfile") (value "microcontroller_interfacing.kicad_sch"))
      (sheetpath (names "/microcontroller_interfacing/") (tstamps "/59b42903-2dc7-4011-ab5b-d7b81bd233c3/"))
      (tstamps "13011f3d-ae22-4a0c-a6b8-08535cd65e24"))
    (comp (ref "SW3")
      (value "C13828")
      (footprint "1825910-6:SW_1825910-6-4")
      (libsource (lib "Switch") (part "SW_Push_Open") (description "Push button switch, push-to-open, generic, two pins"))
      (property (name "Sheetname") (value "microcontroller_interfacing"))
      (property (name "Sheetfile") (value "microcontroller_interfacing.kicad_sch"))
      (sheetpath (names "/microcontroller_interfacing/") (tstamps "/59b42903-2dc7-4011-ab5b-d7b81bd233c3/"))
      (tstamps "ead29cac-b026-47a5-966a-8205558ed08d")))
  (libparts
    (libpart (lib "Battery_Management") (part "MCP73831-2-OT")
      (description "Single cell, Li-Ion/Li-Po charge management controller, 4.20V, Tri-State Status Output, in SOT23-5 package")
      (docs "http://ww1.microchip.com/downloads/en/DeviceDoc/20001984g.pdf")
      (footprints
        (fp "SOT?23*"))
      (fields
        (field (name "Reference") "U")
        (field (name "Value") "MCP73831-2-OT")
        (field (name "Footprint") "Package_TO_SOT_SMD:SOT-23-5")
        (field (name "Datasheet") "http://ww1.microchip.com/downloads/en/DeviceDoc/20001984g.pdf"))
      (pins
        (pin (num "1") (name "STAT") (type "output"))
        (pin (num "2") (name "VSS") (type "power_in"))
        (pin (num "3") (name "VBAT") (type "power_out"))
        (pin (num "4") (name "VDD") (type "power_in"))
        (pin (num "5") (name "PROG") (type "input"))))
    (libpart (lib "Connector") (part "Conn_01x33_Female")
      (description "Generic connector, single row, 01x33, script generated (kicad-library-utils/schlib/autogen/connector/)")
      (docs "~")
      (footprints
        (fp "Connector*:*_1x??_*"))
      (fields
        (field (name "Reference") "J")
        (field (name "Value") "Conn_01x33_Female")
        (field (name "Datasheet") "~"))
      (pins
        (pin (num "1") (name "Pin_1") (type "passive"))
        (pin (num "2") (name "Pin_2") (type "passive"))
        (pin (num "3") (name "Pin_3") (type "passive"))
        (pin (num "4") (name "Pin_4") (type "passive"))
        (pin (num "5") (name "Pin_5") (type "passive"))
        (pin (num "6") (name "Pin_6") (type "passive"))
        (pin (num "7") (name "Pin_7") (type "passive"))
        (pin (num "8") (name "Pin_8") (type "passive"))
        (pin (num "9") (name "Pin_9") (type "passive"))
        (pin (num "10") (name "Pin_10") (type "passive"))
        (pin (num "11") (name "Pin_11") (type "passive"))
        (pin (num "12") (name "Pin_12") (type "passive"))
        (pin (num "13") (name "Pin_13") (type "passive"))
        (pin (num "14") (name "Pin_14") (type "passive"))
        (pin (num "15") (name "Pin_15") (type "passive"))
        (pin (num "16") (name "Pin_16") (type "passive"))
        (pin (num "17") (name "Pin_17") (type "passive"))
        (pin (num "18") (name "Pin_18") (type "passive"))
        (pin (num "19") (name "Pin_19") (type "passive"))
        (pin (num "20") (name "Pin_20") (type "passive"))
        (pin (num "21") (name "Pin_21") (type "passive"))
        (pin (num "22") (name "Pin_22") (type "passive"))
        (pin (num "23") (name "Pin_23") (type "passive"))
        (pin (num "24") (name "Pin_24") (type "passive"))
        (pin (num "25") (name "Pin_25") (type "passive"))
        (pin (num "26") (name "Pin_26") (type "passive"))
        (pin (num "27") (name "Pin_27") (type "passive"))
        (pin (num "28") (name "Pin_28") (type "passive"))
        (pin (num "29") (name "Pin_29") (type "passive"))
        (pin (num "30") (name "Pin_30") (type "passive"))
        (pin (num "31") (name "Pin_31") (type "passive"))
        (pin (num "32") (name "Pin_32") (type "passive"))
        (pin (num "33") (name "Pin_33") (type "passive"))))
    (libpart (lib "Connector") (part "USB_B_Micro")
      (description "USB Micro Type B connector")
      (docs "~")
      (footprints
        (fp "USB*"))
      (fields
        (field (name "Reference") "J")
        (field (name "Value") "USB_B_Micro")
        (field (name "Datasheet") "~"))
      (pins
        (pin (num "1") (name "VBUS") (type "power_out"))
        (pin (num "2") (name "D-") (type "bidirectional"))
        (pin (num "3") (name "D+") (type "bidirectional"))
        (pin (num "4") (name "ID") (type "passive"))
        (pin (num "5") (name "GND") (type "power_out"))
        (pin (num "6") (name "Shield") (type "passive"))))
    (libpart (lib "Device") (part "Battery")
      (description "Multiple-cell battery")
      (docs "~")
      (fields
        (field (name "Reference") "BT")
        (field (name "Value") "Battery")
        (field (name "Datasheet") "~"))
      (pins
        (pin (num "1") (name "+") (type "passive"))
        (pin (num "2") (name "-") (type "passive"))))
    (libpart (lib "Device") (part "C")
      (description "Unpolarized capacitor")
      (docs "~")
      (footprints
        (fp "C_*"))
      (fields
        (field (name "Reference") "C")
        (field (name "Value") "C")
        (field (name "Datasheet") "~"))
      (pins
        (pin (num "1") (name "") (type "passive"))
        (pin (num "2") (name "") (type "passive"))))
    (libpart (lib "Device") (part "C_Small")
      (description "Unpolarized capacitor, small symbol")
      (docs "~")
      (footprints
        (fp "C_*"))
      (fields
        (field (name "Reference") "C")
        (field (name "Value") "C_Small")
        (field (name "Datasheet") "~"))
      (pins
        (pin (num "1") (name "") (type "passive"))
        (pin (num "2") (name "") (type "passive"))))
    (libpart (lib "Device") (part "LED")
      (description "Light emitting diode")
      (docs "~")
      (footprints
        (fp "LED*")
        (fp "LED_SMD:*")
        (fp "LED_THT:*"))
      (fields
        (field (name "Reference") "D")
        (field (name "Value") "LED")
        (field (name "Datasheet") "~"))
      (pins
        (pin (num "1") (name "K") (type "passive"))
        (pin (num "2") (name "A") (type "passive"))))
    (libpart (lib "Device") (part "R")
      (description "Resistor")
      (docs "~")
      (footprints
        (fp "R_*"))
      (fields
        (field (name "Reference") "R")
        (field (name "Value") "R")
        (field (name "Datasheet") "~"))
      (pins
        (pin (num "1") (name "") (type "passive"))
        (pin (num "2") (name "") (type "passive"))))
    (libpart (lib "Device") (part "R_Photo")
      (description "Photoresistor")
      (docs "~")
      (footprints
        (fp "*LDR*")
        (fp "R?LDR*"))
      (fields
        (field (name "Reference") "R")
        (field (name "Value") "R_Photo")
        (field (name "Datasheet") "~"))
      (pins
        (pin (num "1") (name "") (type "passive"))
        (pin (num "2") (name "") (type "passive"))))
    (libpart (lib "Device") (part "R_Small_US")
      (description "Resistor, small US symbol")
      (docs "~")
      (footprints
        (fp "R_*"))
      (fields
        (field (name "Reference") "R")
        (field (name "Value") "R_Small_US")
        (field (name "Datasheet") "~"))
      (pins
        (pin (num "1") (name "") (type "passive"))
        (pin (num "2") (name "") (type "passive"))))
    (libpart (lib "Interface_USB") (part "CH340C")
      (description "USB serial converter, UART, SOIC-16")
      (docs "https://datasheet.lcsc.com/szlcsc/Jiangsu-Qin-Heng-CH340C_C84681.pdf")
      (footprints
        (fp "SOIC*3.9x9.9mm*P1.27mm*"))
      (fields
        (field (name "Reference") "U")
        (field (name "Value") "CH340C")
        (field (name "Footprint") "Package_SO:SOIC-16_3.9x9.9mm_P1.27mm")
        (field (name "Datasheet") "https://datasheet.lcsc.com/szlcsc/Jiangsu-Qin-Heng-CH340C_C84681.pdf"))
      (pins
        (pin (num "1") (name "GND") (type "power_in"))
        (pin (num "2") (name "TXD") (type "output"))
        (pin (num "3") (name "RXD") (type "input"))
        (pin (num "4") (name "V3") (type "passive"))
        (pin (num "5") (name "UD+") (type "bidirectional"))
        (pin (num "6") (name "UD-") (type "bidirectional"))
        (pin (num "7") (name "NC") (type "no_connect"))
        (pin (num "8") (name "NC") (type "no_connect"))
        (pin (num "9") (name "~{CTS}") (type "input"))
        (pin (num "10") (name "~{DSR}") (type "input"))
        (pin (num "11") (name "~{RI}") (type "input"))
        (pin (num "12") (name "~{DCD}") (type "input"))
        (pin (num "13") (name "~{DTR}") (type "output"))
        (pin (num "14") (name "~{RTS}") (type "output"))
        (pin (num "15") (name "R232") (type "input"))
        (pin (num "16") (name "VCC") (type "power_in"))))
    (libpart (lib "Memory_EEPROM") (part "CAT24C256")
      (description "256 kb CMOS Serial EEPROM, DIP-8/SOIC-8/TSSOP-8/DFN-8")
      (docs "https://www.onsemi.cn/PowerSolutions/document/CAT24C256-D.PDF")
      (footprints
        (fp "DIP*W7.62mm*")
        (fp "SOIC*3.9x4.9mm*")
        (fp "TSSOP*4.4x3mm*P0.65mm*")
        (fp "DFN*3x2mm*P0.5mm*"))
      (fields
        (field (name "Reference") "U")
        (field (name "Value") "CAT24C256")
        (field (name "Datasheet") "https://www.onsemi.cn/PowerSolutions/document/CAT24C256-D.PDF"))
      (pins
        (pin (num "1") (name "A0") (type "input"))
        (pin (num "2") (name "A1") (type "input"))
        (pin (num "3") (name "A2") (type "input"))
        (pin (num "4") (name "GND") (type "power_in"))
        (pin (num "5") (name "SDA") (type "bidirectional"))
        (pin (num "6") (name "SCL") (type "input"))
        (pin (num "7") (name "WP") (type "input"))
        (pin (num "8") (name "VCC") (type "power_in"))))
    (libpart (lib "Regulator_Linear") (part "KA78M05_TO252")
      (description "Positive 500mA 35V Linear Regulator, Fixed Output 5V, TO-252 (D-PAK)")
      (docs "https://www.onsemi.com/pub/Collateral/MC78M00-D.PDF")
      (footprints
        (fp "TO?252*"))
      (fields
        (field (name "Reference") "U")
        (field (name "Value") "KA78M05_TO252")
        (field (name "Footprint") "Package_TO_SOT_SMD:TO-252-2")
        (field (name "Datasheet") "https://www.onsemi.com/pub/Collateral/MC78M00-D.PDF"))
      (pins
        (pin (num "1") (name "VI") (type "power_in"))
        (pin (num "2") (name "GND") (type "power_in"))
        (pin (num "3") (name "VO") (type "power_out"))))
    (libpart (lib "Sensor_Temperature") (part "LM75B")
      (description "Digital Temperature Sensor & Thermal Watchdog with LP on I2C and bus fault timeout, SOIC-8 and VSSOP-8")
      (docs "http://www.ti.com/lit/ds/symlink/lm75b.pdf")
      (footprints
        (fp "SOIC*3.9x4.9mm*P1.27mm*")
        (fp "VSSOP*3.0x3.0mm*P0.65mm*"))
      (fields
        (field (name "Reference") "U")
        (field (name "Value") "LM75B")
        (field (name "Datasheet") "http://www.ti.com/lit/ds/symlink/lm75b.pdf"))
      (pins
        (pin (num "1") (name "SDA") (type "bidirectional"))
        (pin (num "2") (name "SCL") (type "input"))
        (pin (num "3") (name "O.S.") (type "open_collector"))
        (pin (num "4") (name "GND") (type "power_in"))
        (pin (num "5") (name "A2") (type "input"))
        (pin (num "6") (name "A1") (type "input"))
        (pin (num "7") (name "A0") (type "input"))
        (pin (num "8") (name "+Vs") (type "power_in"))))
    (libpart (lib "Simulation_SPICE") (part "DIODE")
      (description "Diode, anode on pin 1, for simulation only!")
      (docs "~")
      (fields
        (field (name "Reference") "D")
        (field (name "Value") "DIODE")
        (field (name "Datasheet") "~")
        (field (name "Spice_Netlist_Enabled") "Y")
        (field (name "Spice_Primitive") "D"))
      (pins
        (pin (num "1") (name "A") (type "passive"))
        (pin (num "2") (name "K") (type "passive"))))
    (libpart (lib "Switch") (part "SW_Push")
      (description "Push button switch, generic, two pins")
      (docs "~")
      (fields
        (field (name "Reference") "SW")
        (field (name "Value") "SW_Push")
        (field (name "Datasheet") "~"))
      (pins
        (pin (num "1") (name "1") (type "passive"))
        (pin (num "2") (name "2") (type "passive"))))
    (libpart (lib "Switch") (part "SW_Push_Open")
      (description "Push button switch, push-to-open, generic, two pins")
      (docs "~")
      (fields
        (field (name "Reference") "SW")
        (field (name "Value") "SW_Push_Open")
        (field (name "Datasheet") "~"))
      (pins
        (pin (num "1") (name "A") (type "passive"))
        (pin (num "2") (name "B") (type "passive"))))
    (libpart (lib "Transistor_BJT") (part "2N2219")
      (description "800mA Ic, 50V Vce, NPN Transistor, TO-39")
      (docs "http://www.onsemi.com/pub_link/Collateral/2N2219-D.PDF")
      (footprints
        (fp "TO?39*"))
      (fields
        (field (name "Reference") "Q")
        (field (name "Value") "2N2219")
        (field (name "Footprint") "Package_TO_SOT_THT:TO-39-3")
        (field (name "Datasheet") "http://www.onsemi.com/pub_link/Collateral/2N2219-D.PDF"))
      (pins
        (pin (num "1") (name "E") (type "passive"))
        (pin (num "2") (name "B") (type "passive"))
        (pin (num "3") (name "C") (type "passive"))))
    (libpart (lib "pspice") (part "OPAMP")
      (description "OPAmp symbol for simulation only")
      (docs "~")
      (fields
        (field (name "Reference") "U")
        (field (name "Value") "OPAMP")
        (field (name "Datasheet") "~"))
      (pins
        (pin (num "1") (name "+") (type "input"))
        (pin (num "2") (name "-") (type "input"))
        (pin (num "3") (name "") (type "output"))
        (pin (num "4") (name "V+") (type "power_in"))
        (pin (num "5") (name "V-") (type "power_in")))))
  (libraries
    (library (logical "Battery_Management")
      (uri "C:\\Program Files\\KiCad\\6.0\\share\\kicad\\symbols\\/Battery_Management.kicad_sym"))
    (library (logical "Connector")
      (uri "C:\\Program Files\\KiCad\\6.0\\share\\kicad\\symbols\\/Connector.kicad_sym"))
    (library (logical "Device")
      (uri "C:\\Program Files\\KiCad\\6.0\\share\\kicad\\symbols\\/Device.kicad_sym"))
    (library (logical "Interface_USB")
      (uri "C:\\Program Files\\KiCad\\6.0\\share\\kicad\\symbols\\/Interface_USB.kicad_sym"))
    (library (logical "Memory_EEPROM")
      (uri "C:\\Program Files\\KiCad\\6.0\\share\\kicad\\symbols\\/Memory_EEPROM.kicad_sym"))
    (library (logical "Regulator_Linear")
      (uri "C:\\Program Files\\KiCad\\6.0\\share\\kicad\\symbols\\/Regulator_Linear.kicad_sym"))
    (library (logical "Sensor_Temperature")
      (uri "C:\\Program Files\\KiCad\\6.0\\share\\kicad\\symbols\\/Sensor_Temperature.kicad_sym"))
    (library (logical "Simulation_SPICE")
      (uri "C:\\Program Files\\KiCad\\6.0\\share\\kicad\\symbols\\/Simulation_SPICE.kicad_sym"))
    (library (logical "Switch")
      (uri "C:\\Program Files\\KiCad\\6.0\\share\\kicad\\symbols\\/Switch.kicad_sym"))
    (library (logical "Transistor_BJT")
      (uri "C:\\Program Files\\KiCad\\6.0\\share\\kicad\\symbols\\/Transistor_BJT.kicad_sym"))
    (library (logical "pspice")
      (uri "C:\\Program Files\\KiCad\\6.0\\share\\kicad\\symbols\\/pspice.kicad_sym")))
  (nets
    (net (code "1") (name "+3V0")
      (node (ref "J1") (pin "1") (pinfunction "Pin_1") (pintype "passive"))
      (node (ref "J2") (pin "1") (pinfunction "Pin_1") (pintype "passive")))
    (net (code "2") (name "+5V")
      (node (ref "C3") (pin "1") (pintype "passive"))
      (node (ref "C4") (pin "1") (pintype "passive"))
      (node (ref "C5") (pin "2") (pintype "passive"))
      (node (ref "EEPROM1") (pin "8") (pinfunction "VCC") (pintype "power_in"))
      (node (ref "FTDI(UART)1") (pin "15") (pinfunction "R232") (pintype "input"))
      (node (ref "FTDI(UART)1") (pin "16") (pinfunction "VCC") (pintype "power_in"))
      (node (ref "J3") (pin "1") (pinfunction "Pin_1") (pintype "passive"))
      (node (ref "J4") (pin "1") (pinfunction "Pin_1") (pintype "passive"))
      (node (ref "R10") (pin "1") (pintype "passive"))
      (node (ref "R11") (pin "1") (pintype "passive"))
      (node (ref "R12") (pin "1") (pintype "passive"))
      (node (ref "R13") (pin "1") (pintype "passive"))
      (node (ref "R14") (pin "1") (pintype "passive"))
      (node (ref "R8") (pin "1") (pintype "passive"))
      (node (ref "SW1") (pin "1") (pinfunction "1") (pintype "passive"))
      (node (ref "SW2") (pin "1") (pinfunction "A") (pintype "passive"))
      (node (ref "SW3") (pin "1") (pinfunction "A") (pintype "passive"))
      (node (ref "TempSensor1") (pin "8") (pinfunction "+Vs") (pintype "power_in"))
      (node (ref "VoltageRegulator1") (pin "3") (pinfunction "VO") (pintype "power_out")))
    (net (code "3") (name "/BOOT")
      (node (ref "J3") (pin "6") (pinfunction "Pin_6") (pintype "passive"))
      (node (ref "J4") (pin "6") (pinfunction "Pin_6") (pintype "passive")))
    (net (code "4") (name "/NRST")
      (node (ref "J1") (pin "10") (pinfunction "Pin_10") (pintype "passive"))
      (node (ref "J2") (pin "10") (pinfunction "Pin_10") (pintype "passive")))
    (net (code "5") (name "/PA0")
      (node (ref "J1") (pin "15") (pinfunction "Pin_15") (pintype "passive"))
      (node (ref "J2") (pin "15") (pinfunction "Pin_15") (pintype "passive")))
    (net (code "6") (name "/PA1")
      (node (ref "J1") (pin "16") (pinfunction "Pin_16") (pintype "passive"))
      (node (ref "J2") (pin "16") (pinfunction "Pin_16") (pintype "passive")))
    (net (code "7") (name "/PA2")
      (node (ref "FTDI(UART)1") (pin "2") (pinfunction "TXD") (pintype "output"))
      (node (ref "J1") (pin "17") (pinfunction "Pin_17") (pintype "passive"))
      (node (ref "J2") (pin "17") (pinfunction "Pin_17") (pintype "passive")))
    (net (code "8") (name "/PA3")
      (node (ref "FTDI(UART)1") (pin "3") (pinfunction "RXD") (pintype "input"))
      (node (ref "J1") (pin "18") (pinfunction "Pin_18") (pintype "passive"))
      (node (ref "J2") (pin "18") (pinfunction "Pin_18") (pintype "passive")))
    (net (code "9") (name "/PA4")
      (node (ref "J1") (pin "21") (pinfunction "Pin_21") (pintype "passive"))
      (node (ref "J2") (pin "21") (pinfunction "Pin_21") (pintype "passive")))
    (net (code "10") (name "/PA5")
      (node (ref "J1") (pin "22") (pinfunction "Pin_22") (pintype "passive"))
      (node (ref "J2") (pin "22") (pinfunction "Pin_22") (pintype "passive")))
    (net (code "11") (name "/PA6")
      (node (ref "J1") (pin "23") (pinfunction "Pin_23") (pintype "passive"))
      (node (ref "J2") (pin "23") (pinfunction "Pin_23") (pintype "passive")))
    (net (code "12") (name "/PA7")
      (node (ref "J1") (pin "24") (pinfunction "Pin_24") (pintype "passive"))
      (node (ref "J2") (pin "24") (pinfunction "Pin_24") (pintype "passive")))
    (net (code "13") (name "/PA8")
      (node (ref "J3") (pin "25") (pinfunction "Pin_25") (pintype "passive"))
      (node (ref "J4") (pin "25") (pinfunction "Pin_25") (pintype "passive")))
    (net (code "14") (name "/PA9")
      (node (ref "J3") (pin "24") (pinfunction "Pin_24") (pintype "passive"))
      (node (ref "J4") (pin "24") (pinfunction "Pin_24") (pintype "passive")))
    (net (code "15") (name "/PA10")
      (node (ref "J3") (pin "23") (pinfunction "Pin_23") (pintype "passive"))
      (node (ref "J4") (pin "23") (pinfunction "Pin_23") (pintype "passive")))
    (net (code "16") (name "/PA11")
      (node (ref "J3") (pin "22") (pinfunction "Pin_22") (pintype "passive"))
      (node (ref "J4") (pin "22") (pinfunction "Pin_22") (pintype "passive")))
    (net (code "17") (name "/PA12")
      (node (ref "J3") (pin "21") (pinfunction "Pin_21") (pintype "passive"))
      (node (ref "J4") (pin "21") (pinfunction "Pin_21") (pintype "passive")))
    (net (code "18") (name "/PA13")
      (node (ref "J3") (pin "20") (pinfunction "Pin_20") (pintype "passive"))
      (node (ref "J4") (pin "20") (pinfunction "Pin_20") (pintype "passive")))
    (net (code "19") (name "/PA14")
      (node (ref "J3") (pin "17") (pinfunction "Pin_17") (pintype "passive"))
      (node (ref "J4") (pin "17") (pinfunction "Pin_17") (pintype "passive")))
    (net (code "20") (name "/PA15")
      (node (ref "J3") (pin "16") (pinfunction "Pin_16") (pintype "passive"))
      (node (ref "J4") (pin "16") (pinfunction "Pin_16") (pintype "passive")))
    (net (code "21") (name "/PB0")
      (node (ref "J1") (pin "27") (pinfunction "Pin_27") (pintype "passive"))
      (node (ref "J2") (pin "27") (pinfunction "Pin_27") (pintype "passive"))
      (node (ref "TempSensor1") (pin "6") (pinfunction "A1") (pintype "input")))
    (net (code "22") (name "/PB1")
      (node (ref "J1") (pin "28") (pinfunction "Pin_28") (pintype "passive"))
      (node (ref "J2") (pin "28") (pinfunction "Pin_28") (pintype "passive"))
      (node (ref "TempSensor1") (pin "7") (pinfunction "A0") (pintype "input")))
    (net (code "23") (name "/PB2")
      (node (ref "J1") (pin "29") (pinfunction "Pin_29") (pintype "passive"))
      (node (ref "J2") (pin "29") (pinfunction "Pin_29") (pintype "passive")))
    (net (code "24") (name "/PB3")
      (node (ref "J3") (pin "11") (pinfunction "Pin_11") (pintype "passive"))
      (node (ref "J4") (pin "11") (pinfunction "Pin_11") (pintype "passive")))
    (net (code "25") (name "/PB4")
      (node (ref "J3") (pin "10") (pinfunction "Pin_10") (pintype "passive"))
      (node (ref "J4") (pin "10") (pinfunction "Pin_10") (pintype "passive")))
    (net (code "26") (name "/PB5")
      (node (ref "J3") (pin "9") (pinfunction "Pin_9") (pintype "passive"))
      (node (ref "J4") (pin "9") (pinfunction "Pin_9") (pintype "passive")))
    (net (code "27") (name "/PB6")
      (node (ref "J3") (pin "8") (pinfunction "Pin_8") (pintype "passive"))
      (node (ref "J4") (pin "8") (pinfunction "Pin_8") (pintype "passive")))
    (net (code "28") (name "/PB7")
      (node (ref "J3") (pin "7") (pinfunction "Pin_7") (pintype "passive"))
      (node (ref "J4") (pin "7") (pinfunction "Pin_7") (pintype "passive")))
    (net (code "29") (name "/PB8")
      (node (ref "J3") (pin "4") (pinfunction "Pin_4") (pintype "passive"))
      (node (ref "J4") (pin "4") (pinfunction "Pin_4") (pintype "passive")))
    (net (code "30") (name "/PB9")
      (node (ref "J3") (pin "3") (pinfunction "Pin_3") (pintype "passive"))
      (node (ref "J4") (pin "3") (pinfunction "Pin_3") (pintype "passive")))
    (net (code "31") (name "/PB10")
      (node (ref "J1") (pin "30") (pinfunction "Pin_30") (pintype "passive"))
      (node (ref "J2") (pin "30") (pinfunction "Pin_30") (pintype "passive")))
    (net (code "32") (name "/PB11")
      (node (ref "J1") (pin "31") (pinfunction "Pin_31") (pintype "passive"))
      (node (ref "J2") (pin "31") (pinfunction "Pin_31") (pintype "passive")))
    (net (code "33") (name "/PB12")
      (node (ref "J1") (pin "32") (pinfunction "Pin_32") (pintype "passive"))
      (node (ref "J2") (pin "32") (pinfunction "Pin_32") (pintype "passive")))
    (net (code "34") (name "/PB13")
      (node (ref "J3") (pin "32") (pinfunction "Pin_32") (pintype "passive"))
      (node (ref "J4") (pin "32") (pinfunction "Pin_32") (pintype "passive")))
    (net (code "35") (name "/PB14")
      (node (ref "J3") (pin "31") (pinfunction "Pin_31") (pintype "passive"))
      (node (ref "J4") (pin "31") (pinfunction "Pin_31") (pintype "passive")))
    (net (code "36") (name "/PB15")
      (node (ref "J3") (pin "30") (pinfunction "Pin_30") (pintype "passive"))
      (node (ref "J4") (pin "30") (pinfunction "Pin_30") (pintype "passive")))
    (net (code "37") (name "/PC0")
      (node (ref "J1") (pin "11") (pinfunction "Pin_11") (pintype "passive"))
      (node (ref "J2") (pin "11") (pinfunction "Pin_11") (pintype "passive"))
      (node (ref "LDR1") (pin "1") (pintype "passive"))
      (node (ref "R8") (pin "2") (pintype "passive")))
    (net (code "38") (name "/PC1")
      (node (ref "J1") (pin "12") (pinfunction "Pin_12") (pintype "passive"))
      (node (ref "J2") (pin "12") (pinfunction "Pin_12") (pintype "passive"))
      (node (ref "LDR2") (pin "1") (pintype "passive"))
      (node (ref "R10") (pin "2") (pintype "passive")))
    (net (code "39") (name "/PC2")
      (node (ref "J1") (pin "13") (pinfunction "Pin_13") (pintype "passive"))
      (node (ref "J2") (pin "13") (pinfunction "Pin_13") (pintype "passive")))
    (net (code "40") (name "/PC3")
      (node (ref "J1") (pin "14") (pinfunction "Pin_14") (pintype "passive"))
      (node (ref "J2") (pin "14") (pinfunction "Pin_14") (pintype "passive")))
    (net (code "41") (name "/PC4")
      (node (ref "J1") (pin "25") (pinfunction "Pin_25") (pintype "passive"))
      (node (ref "J2") (pin "25") (pinfunction "Pin_25") (pintype "passive"))
      (node (ref "R9") (pin "1") (pintype "passive")))
    (net (code "42") (name "/PC5")
      (node (ref "J1") (pin "26") (pinfunction "Pin_26") (pintype "passive"))
      (node (ref "J2") (pin "26") (pinfunction "Pin_26") (pintype "passive"))
      (node (ref "TempSensor1") (pin "5") (pinfunction "A2") (pintype "input")))
    (net (code "43") (name "/PC6")
      (node (ref "J3") (pin "29") (pinfunction "Pin_29") (pintype "passive"))
      (node (ref "J4") (pin "29") (pinfunction "Pin_29") (pintype "passive")))
    (net (code "44") (name "/PC7")
      (node (ref "J3") (pin "28") (pinfunction "Pin_28") (pintype "passive"))
      (node (ref "J4") (pin "28") (pinfunction "Pin_28") (pintype "passive")))
    (net (code "45") (name "/PC8")
      (node (ref "J3") (pin "27") (pinfunction "Pin_27") (pintype "passive"))
      (node (ref "J4") (pin "27") (pinfunction "Pin_27") (pintype "passive")))
    (net (code "46") (name "/PC9")
      (node (ref "J3") (pin "26") (pinfunction "Pin_26") (pintype "passive"))
      (node (ref "J4") (pin "26") (pinfunction "Pin_26") (pintype "passive")))
    (net (code "47") (name "/PC10")
      (node (ref "J3") (pin "15") (pinfunction "Pin_15") (pintype "passive"))
      (node (ref "J4") (pin "15") (pinfunction "Pin_15") (pintype "passive")))
    (net (code "48") (name "/PC11")
      (node (ref "J3") (pin "14") (pinfunction "Pin_14") (pintype "passive"))
      (node (ref "J4") (pin "14") (pinfunction "Pin_14") (pintype "passive")))
    (net (code "49") (name "/PC12")
      (node (ref "J3") (pin "13") (pinfunction "Pin_13") (pintype "passive"))
      (node (ref "J4") (pin "13") (pinfunction "Pin_13") (pintype "passive")))
    (net (code "50") (name "/PC13")
      (node (ref "J1") (pin "4") (pinfunction "Pin_4") (pintype "passive"))
      (node (ref "J2") (pin "4") (pinfunction "Pin_4") (pintype "passive")))
    (net (code "51") (name "/PC14")
      (node (ref "J1") (pin "5") (pinfunction "Pin_5") (pintype "passive"))
      (node (ref "J2") (pin "5") (pinfunction "Pin_5") (pintype "passive")))
    (net (code "52") (name "/PC15")
      (node (ref "J1") (pin "6") (pinfunction "Pin_6") (pintype "passive"))
      (node (ref "J2") (pin "6") (pinfunction "Pin_6") (pintype "passive")))
    (net (code "53") (name "/PD2")
      (node (ref "J3") (pin "12") (pinfunction "Pin_12") (pintype "passive"))
      (node (ref "J4") (pin "12") (pinfunction "Pin_12") (pintype "passive")))
    (net (code "54") (name "/PF0")
      (node (ref "J1") (pin "7") (pinfunction "Pin_7") (pintype "passive"))
      (node (ref "J2") (pin "7") (pinfunction "Pin_7") (pintype "passive")))
    (net (code "55") (name "/PF1")
      (node (ref "J1") (pin "8") (pinfunction "Pin_8") (pintype "passive"))
      (node (ref "J2") (pin "8") (pinfunction "Pin_8") (pintype "passive")))
    (net (code "56") (name "/PF4")
      (node (ref "J1") (pin "19") (pinfunction "Pin_19") (pintype "passive"))
      (node (ref "J2") (pin "19") (pinfunction "Pin_19") (pintype "passive")))
    (net (code "57") (name "/PF5")
      (node (ref "J1") (pin "20") (pinfunction "Pin_20") (pintype "passive"))
      (node (ref "J2") (pin "20") (pinfunction "Pin_20") (pintype "passive")))
    (net (code "58") (name "/PF6")
      (node (ref "J3") (pin "19") (pinfunction "Pin_19") (pintype "passive"))
      (node (ref "J4") (pin "19") (pinfunction "Pin_19") (pintype "passive")))
    (net (code "59") (name "/PF7")
      (node (ref "J3") (pin "18") (pinfunction "Pin_18") (pintype "passive"))
      (node (ref "J4") (pin "18") (pinfunction "Pin_18") (pintype "passive")))
    (net (code "60") (name "/Sensing/CLK")
      (node (ref "EEPROM1") (pin "6") (pinfunction "SCL") (pintype "input"))
      (node (ref "R13") (pin "2") (pintype "passive"))
      (node (ref "TempSensor1") (pin "2") (pinfunction "SCL") (pintype "input")))
    (net (code "61") (name "/Sensing/I2CBUS")
      (node (ref "EEPROM1") (pin "5") (pinfunction "SDA") (pintype "bidirectional"))
      (node (ref "R11") (pin "2") (pintype "passive"))
      (node (ref "R12") (pin "2") (pintype "passive"))
      (node (ref "TempSensor1") (pin "1") (pinfunction "SDA") (pintype "bidirectional"))
      (node (ref "TempSensor1") (pin "3") (pinfunction "O.S.") (pintype "open_collector")))
    (net (code "62") (name "/VBAT")
      (node (ref "J1") (pin "3") (pinfunction "Pin_3") (pintype "passive"))
      (node (ref "J2") (pin "3") (pinfunction "Pin_3") (pintype "passive")))
    (net (code "63") (name "/microcontroller_interfacing/GND = Normal R{slash}W operations")
      (node (ref "EEPROM1") (pin "7") (pinfunction "WP") (pintype "input"))
      (node (ref "R19") (pin "1") (pintype "passive"))
      (node (ref "SW3") (pin "2") (pinfunction "B") (pintype "passive")))
    (net (code "64") (name "/microcontroller_interfacing/USB PWR (5V)")
      (node (ref "R15") (pin "1") (pintype "passive")))
    (net (code "65") (name "GND")
      (node (ref "BT1") (pin "2") (pinfunction "-") (pintype "passive"))
      (node (ref "C1") (pin "2") (pintype "passive"))
      (node (ref "C2") (pin "2") (pintype "passive"))
      (node (ref "C3") (pin "2") (pintype "passive"))
      (node (ref "C4") (pin "2") (pintype "passive"))
      (node (ref "EEPROM1") (pin "1") (pinfunction "A0") (pintype "input"))
      (node (ref "EEPROM1") (pin "2") (pinfunction "A1") (pintype "input"))
      (node (ref "EEPROM1") (pin "3") (pinfunction "A2") (pintype "input"))
      (node (ref "EEPROM1") (pin "4") (pinfunction "GND") (pintype "power_in"))
      (node (ref "FTDI(UART)1") (pin "1") (pinfunction "GND") (pintype "power_in"))
      (node (ref "J1") (pin "2") (pinfunction "Pin_2") (pintype "passive"))
      (node (ref "J1") (pin "33") (pinfunction "Pin_33") (pintype "passive"))
      (node (ref "J1") (pin "9") (pinfunction "Pin_9") (pintype "passive"))
      (node (ref "J2") (pin "2") (pinfunction "Pin_2") (pintype "passive"))
      (node (ref "J2") (pin "33") (pinfunction "Pin_33") (pintype "passive"))
      (node (ref "J2") (pin "9") (pinfunction "Pin_9") (pintype "passive"))
      (node (ref "J3") (pin "2") (pinfunction "Pin_2") (pintype "passive"))
      (node (ref "J3") (pin "33") (pinfunction "Pin_33") (pintype "passive"))
      (node (ref "J4") (pin "2") (pinfunction "Pin_2") (pintype "passive"))
      (node (ref "J4") (pin "33") (pinfunction "Pin_33") (pintype "passive"))
      (node (ref "J5") (pin "5") (pinfunction "GND") (pintype "power_out"))
      (node (ref "J5") (pin "6") (pinfunction "Shield") (pintype "passive"))
      (node (ref "J6") (pin "5") (pinfunction "GND") (pintype "power_out"))
      (node (ref "J6") (pin "6") (pinfunction "Shield") (pintype "passive"))
      (node (ref "LDR1") (pin "2") (pintype "passive"))
      (node (ref "LDR2") (pin "2") (pintype "passive"))
      (node (ref "LED1") (pin "1") (pinfunction "K") (pintype "passive"))
      (node (ref "R1") (pin "2") (pintype "passive"))
      (node (ref "R17") (pin "2") (pintype "passive"))
      (node (ref "R18") (pin "2") (pintype "passive"))
      (node (ref "R19") (pin "2") (pintype "passive"))
      (node (ref "R2") (pin "1") (pintype "passive"))
      (node (ref "R5") (pin "2") (pintype "passive"))
      (node (ref "TempSensor1") (pin "4") (pinfunction "GND") (pintype "power_in"))
      (node (ref "U1") (pin "5") (pinfunction "V-") (pintype "power_in"))
      (node (ref "U2") (pin "2") (pinfunction "VSS") (pintype "power_in"))
      (node (ref "VoltageRegulator1") (pin "2") (pinfunction "GND") (pintype "power_in")))
    (net (code "66") (name "Net-(BT1-Pad1)")
      (node (ref "BT1") (pin "1") (pinfunction "+") (pintype "passive"))
      (node (ref "R3") (pin "1") (pintype "passive"))
      (node (ref "R6") (pin "2") (pintype "passive"))
      (node (ref "U1") (pin "4") (pinfunction "V+") (pintype "power_in"))
      (node (ref "U2") (pin "3") (pinfunction "VBAT") (pintype "power_out")))
    (net (code "67") (name "Net-(C2-Pad1)")
      (node (ref "C2") (pin "1") (pintype "passive"))
      (node (ref "J5") (pin "1") (pinfunction "VBUS") (pintype "power_out"))
      (node (ref "R7") (pin "2") (pintype "passive"))
      (node (ref "U2") (pin "4") (pinfunction "VDD") (pintype "power_in")))
    (net (code "68") (name "Net-(C5-Pad1)")
      (node (ref "C5") (pin "1") (pintype "passive"))
      (node (ref "FTDI(UART)1") (pin "4") (pinfunction "V3") (pintype "passive")))
    (net (code "69") (name "Net-(D1-Pad1)")
      (node (ref "D1") (pin "1") (pinfunction "K") (pintype "passive"))
      (node (ref "Q1") (pin "2") (pinfunction "B") (pintype "passive")))
    (net (code "70") (name "Net-(D1-Pad2)")
      (node (ref "D1") (pin "2") (pinfunction "A") (pintype "passive"))
      (node (ref "R3") (pin "2") (pintype "passive")))
    (net (code "71") (name "Net-(D2-Pad1)")
      (node (ref "D2") (pin "1") (pinfunction "K") (pintype "passive"))
      (node (ref "U2") (pin "1") (pinfunction "STAT") (pintype "output")))
    (net (code "72") (name "Net-(D2-Pad2)")
      (node (ref "D2") (pin "2") (pinfunction "A") (pintype "passive"))
      (node (ref "R7") (pin "1") (pintype "passive")))
    (net (code "73") (name "Net-(D3-Pad1)")
      (node (ref "D3") (pin "1") (pinfunction "A") (pintype "passive"))
      (node (ref "J6") (pin "1") (pinfunction "VBUS") (pintype "power_out")))
    (net (code "74") (name "Net-(D3-Pad2)")
      (node (ref "D3") (pin "2") (pinfunction "K") (pintype "passive"))
      (node (ref "R15") (pin "2") (pintype "passive"))
      (node (ref "R16") (pin "1") (pintype "passive")))
    (net (code "75") (name "Net-(FTDI(UART)1-Pad13)")
      (node (ref "FTDI(UART)1") (pin "13") (pinfunction "~{DTR}") (pintype "output"))
      (node (ref "R18") (pin "1") (pintype "passive"))
      (node (ref "SW2") (pin "2") (pinfunction "B") (pintype "passive")))
    (net (code "76") (name "Net-(LED1-Pad2)")
      (node (ref "LED1") (pin "2") (pinfunction "A") (pintype "passive"))
      (node (ref "R14") (pin "2") (pintype "passive")))
    (net (code "77") (name "Net-(Q1-Pad1)")
      (node (ref "Q1") (pin "1") (pinfunction "E") (pintype "passive"))
      (node (ref "R2") (pin "2") (pintype "passive"))
      (node (ref "U1") (pin "1") (pinfunction "+") (pintype "input")))
    (net (code "78") (name "Net-(Q1-Pad3)")
      (node (ref "Q1") (pin "3") (pinfunction "C") (pintype "passive"))
      (node (ref "R6") (pin "1") (pintype "passive")))
    (net (code "79") (name "Net-(R1-Pad1)")
      (node (ref "R1") (pin "1") (pintype "passive"))
      (node (ref "U2") (pin "5") (pinfunction "PROG") (pintype "input")))
    (net (code "80") (name "Net-(R4-Pad2)")
      (node (ref "R4") (pin "2") (pintype "passive"))
      (node (ref "R5") (pin "1") (pintype "passive"))
      (node (ref "U1") (pin "2") (pinfunction "-") (pintype "input")))
    (net (code "81") (name "Net-(R9-Pad2)")
      (node (ref "R9") (pin "2") (pintype "passive"))
      (node (ref "SW1") (pin "2") (pinfunction "2") (pintype "passive")))
    (net (code "82") (name "Net-(R16-Pad2)")
      (node (ref "R16") (pin "2") (pintype "passive"))
      (node (ref "R17") (pin "1") (pintype "passive")))
    (net (code "83") (name "OPAMP OUT")
      (node (ref "C1") (pin "1") (pintype "passive"))
      (node (ref "R4") (pin "1") (pintype "passive"))
      (node (ref "U1") (pin "3") (pintype "output"))
      (node (ref "VoltageRegulator1") (pin "1") (pinfunction "VI") (pintype "power_in")))
    (net (code "84") (name "USB D+")
      (node (ref "FTDI(UART)1") (pin "5") (pinfunction "UD+") (pintype "bidirectional"))
      (node (ref "J6") (pin "3") (pinfunction "D+") (pintype "bidirectional")))
    (net (code "85") (name "USB D-")
      (node (ref "FTDI(UART)1") (pin "6") (pinfunction "UD-") (pintype "bidirectional"))
      (node (ref "J6") (pin "2") (pinfunction "D-") (pintype "bidirectional")))
    (net (code "86") (name "VDD")
      (node (ref "J3") (pin "5") (pinfunction "Pin_5") (pintype "passive"))
      (node (ref "J4") (pin "5") (pinfunction "Pin_5") (pintype "passive")))
    (net (code "87") (name "unconnected-(FTDI(UART)1-Pad7)")
      (node (ref "FTDI(UART)1") (pin "7") (pinfunction "NC") (pintype "no_connect")))
    (net (code "88") (name "unconnected-(FTDI(UART)1-Pad8)")
      (node (ref "FTDI(UART)1") (pin "8") (pinfunction "NC") (pintype "no_connect")))
    (net (code "89") (name "unconnected-(FTDI(UART)1-Pad9)")
      (node (ref "FTDI(UART)1") (pin "9") (pinfunction "~{CTS}") (pintype "input+no_connect")))
    (net (code "90") (name "unconnected-(FTDI(UART)1-Pad10)")
      (node (ref "FTDI(UART)1") (pin "10") (pinfunction "~{DSR}") (pintype "input+no_connect")))
    (net (code "91") (name "unconnected-(FTDI(UART)1-Pad11)")
      (node (ref "FTDI(UART)1") (pin "11") (pinfunction "~{RI}") (pintype "input+no_connect")))
    (net (code "92") (name "unconnected-(FTDI(UART)1-Pad12)")
      (node (ref "FTDI(UART)1") (pin "12") (pinfunction "~{DCD}") (pintype "input+no_connect")))
    (net (code "93") (name "unconnected-(FTDI(UART)1-Pad14)")
      (node (ref "FTDI(UART)1") (pin "14") (pinfunction "~{RTS}") (pintype "output+no_connect")))
    (net (code "94") (name "unconnected-(J5-Pad2)")
      (node (ref "J5") (pin "2") (pinfunction "D-") (pintype "bidirectional+no_connect")))
    (net (code "95") (name "unconnected-(J5-Pad3)")
      (node (ref "J5") (pin "3") (pinfunction "D+") (pintype "bidirectional+no_connect")))
    (net (code "96") (name "unconnected-(J5-Pad4)")
      (node (ref "J5") (pin "4") (pinfunction "ID") (pintype "passive+no_connect")))
    (net (code "97") (name "unconnected-(J6-Pad4)")
      (node (ref "J6") (pin "4") (pinfunction "ID") (pintype "passive+no_connect")))))