(kicad_symbol_lib (version 20211014) (generator kicad_symbol_editor)
  (symbol "C404969" (in_bom yes) (on_board yes)
    (property "Reference" "U" (id 0) (at 0 0 0)
      (effects (font (size 1.27 1.27)))
    )
    (property "Value" "C404969" (id 1) (at 0 -6.35 0)
      (effects (font (size 1.27 1.27)))
    )
    (property "Footprint" "" (id 2) (at 0 0 0)
      (effects (font (size 1.27 1.27)) hide)
    )
    (property "Datasheet" "" (id 3) (at 0 0 0)
      (effects (font (size 1.27 1.27)) hide)
    )
  )
)
